Font: [Arkitech Medium.ttf]
Text: [Credits.txt]
Border Color: [255, 255, 255, 0]
Background Color: [0, 1, 255, 0]
Text Color: [255, 255, 255, 0]
Max Lines: [8]
Max Line Length: [26]
Font Size: [18]
Border Rect: [192, 528, 640, 200]
Background Rect: [202, 538, 620, 180]