^C:\USERS\SHANE\DOCUMENTS\VISUAL STUDIO 2015\PROJECTS\EDGE\EDGE\ANIMATIONSTATION.CPP
/c /I"C:\USERS\SHANE\DOCUMENTS\VISUAL STUDIO 2015\PROJECTS\EDGE\EDGE\ASSIMP\INCLUDE" /I"C:\USERS\SHANE\DOCUMENTS\VISUAL STUDIO 2015\PROJECTS\EDGE\EDGE\SDL2-2.0.5\INCLUDE" /I"C:\USERS\SHANE\DOCUMENTS\VISUAL STUDIO 2015\PROJECTS\EDGE\EDGE\GLEW-2.0.0\INCLUDE" /I"C:\USERS\SHANE\DOCUMENTS\VISUAL STUDIO 2015\PROJECTS\EDGE\EDGE\GLM\TEST\EXTERNAL" /I"C:\USERS\SHANE\DOCUMENTS\VISUAL STUDIO 2015\PROJECTS\EDGE\EDGE\GLM" /I"C:\USERS\SHANE\DOCUMENTS\VISUAL STUDIO 2015\PROJECTS\EDGE\EDGE\GLM\GLM" /I"C:\USERS\SHANE\DOCUMENTS\VISUAL STUDIO 2015\PROJECTS\EDGE\EDGE\GLEW-2.0.0\INCLUDE" /I"C:\USERS\SHANE\DOCUMENTS\VISUAL STUDIO 2015\PROJECTS\EDGE\EDGE\GLEW-2.0.0\INCLUDE\GL" /I"E:\USERS\SKING14\FINAL\EDGE\EDGE\SDL2_IMAGE-2.0.1\INCLUDE" /I"E:\USERS\SKING14\FINAL\EDGE\EDGE\SDL2_MIXER-DEVEL-2.0.1-VC\SDL2_MIXER-2.0.1\INCLUDE" /I"E:\USERS\SKING14\FINAL\EDGE\EDGE\SDL2_TTF-DEVEL-2.0.14-VC\SDL2_TTF-2.0.14\INCLUDE" /I"E:\USERS\SKING14\FINAL\EDGE\EDGE\SDL2-2.0.5\INCLUDE" /I"C:\USERS\SHANE\DOCUMENTS\VISUAL STUDIO 2015\PROJECTS\EDGE\EDGE\SDL2_MIXER-DEVEL-2.0.1-VC\SDL2_MIXER-2.0.1\INCLUDE" /I"C:\USERS\SHANE\DOCUMENTS\VISUAL STUDIO 2015\PROJECTS\EDGE\EDGE\SDL2-2.0.5\INCLUDE" /I"C:\USERS\SHANE\DOCUMENTS\VISUAL STUDIO 2015\PROJECTS\EDGE\EDGE\SDL2_TTF-DEVEL-2.0.14-VC\SDL2_TTF-2.0.14\INCLUDE" /I"C:\USERS\SHANE\DOCUMENTS\VISUAL STUDIO 2015\PROJECTS\EDGE\EDGE\SDL2_IMAGE-2.0.1\INCLUDE" /I"C:\PROGRAM FILES (X86)\VISUAL LEAK DETECTOR\INCLUDE" /Zi /nologo /W3 /WX- /sdl /O2 /Oi /Oy- /GL /D WIN32 /D NDEBUG /D _CONSOLE /D _UNICODE /D UNICODE /Gm- /EHsc /MD /GS /Gy /fp:precise /Zc:wchar_t /Zc:forScope /Zc:inline /Fo"RELEASE\\" /Fd"RELEASE\VC140.PDB" /Gd /TP /analyze- C:\USERS\SHANE\DOCUMENTS\VISUAL STUDIO 2015\PROJECTS\EDGE\EDGE\ANIMATIONSTATION.CPP
^C:\USERS\SHANE\DOCUMENTS\VISUAL STUDIO 2015\PROJECTS\EDGE\EDGE\AUDIOSYSTEM.CPP
/c /I"C:\USERS\SHANE\DOCUMENTS\VISUAL STUDIO 2015\PROJECTS\EDGE\EDGE\ASSIMP\INCLUDE" /I"C:\USERS\SHANE\DOCUMENTS\VISUAL STUDIO 2015\PROJECTS\EDGE\EDGE\SDL2-2.0.5\INCLUDE" /I"C:\USERS\SHANE\DOCUMENTS\VISUAL STUDIO 2015\PROJECTS\EDGE\EDGE\GLEW-2.0.0\INCLUDE" /I"C:\USERS\SHANE\DOCUMENTS\VISUAL STUDIO 2015\PROJECTS\EDGE\EDGE\GLM\TEST\EXTERNAL" /I"C:\USERS\SHANE\DOCUMENTS\VISUAL STUDIO 2015\PROJECTS\EDGE\EDGE\GLM" /I"C:\USERS\SHANE\DOCUMENTS\VISUAL STUDIO 2015\PROJECTS\EDGE\EDGE\GLM\GLM" /I"C:\USERS\SHANE\DOCUMENTS\VISUAL STUDIO 2015\PROJECTS\EDGE\EDGE\GLEW-2.0.0\INCLUDE" /I"C:\USERS\SHANE\DOCUMENTS\VISUAL STUDIO 2015\PROJECTS\EDGE\EDGE\GLEW-2.0.0\INCLUDE\GL" /I"E:\USERS\SKING14\FINAL\EDGE\EDGE\SDL2_IMAGE-2.0.1\INCLUDE" /I"E:\USERS\SKING14\FINAL\EDGE\EDGE\SDL2_MIXER-DEVEL-2.0.1-VC\SDL2_MIXER-2.0.1\INCLUDE" /I"E:\USERS\SKING14\FINAL\EDGE\EDGE\SDL2_TTF-DEVEL-2.0.14-VC\SDL2_TTF-2.0.14\INCLUDE" /I"E:\USERS\SKING14\FINAL\EDGE\EDGE\SDL2-2.0.5\INCLUDE" /I"C:\USERS\SHANE\DOCUMENTS\VISUAL STUDIO 2015\PROJECTS\EDGE\EDGE\SDL2_MIXER-DEVEL-2.0.1-VC\SDL2_MIXER-2.0.1\INCLUDE" /I"C:\USERS\SHANE\DOCUMENTS\VISUAL STUDIO 2015\PROJECTS\EDGE\EDGE\SDL2-2.0.5\INCLUDE" /I"C:\USERS\SHANE\DOCUMENTS\VISUAL STUDIO 2015\PROJECTS\EDGE\EDGE\SDL2_TTF-DEVEL-2.0.14-VC\SDL2_TTF-2.0.14\INCLUDE" /I"C:\USERS\SHANE\DOCUMENTS\VISUAL STUDIO 2015\PROJECTS\EDGE\EDGE\SDL2_IMAGE-2.0.1\INCLUDE" /I"C:\PROGRAM FILES (X86)\VISUAL LEAK DETECTOR\INCLUDE" /Zi /nologo /W3 /WX- /sdl /O2 /Oi /Oy- /GL /D WIN32 /D NDEBUG /D _CONSOLE /D _UNICODE /D UNICODE /Gm- /EHsc /MD /GS /Gy /fp:precise /Zc:wchar_t /Zc:forScope /Zc:inline /Fo"RELEASE\\" /Fd"RELEASE\VC140.PDB" /Gd /TP /analyze- C:\USERS\SHANE\DOCUMENTS\VISUAL STUDIO 2015\PROJECTS\EDGE\EDGE\AUDIOSYSTEM.CPP
^C:\USERS\SHANE\DOCUMENTS\VISUAL STUDIO 2015\PROJECTS\EDGE\EDGE\BGMUSIC.CPP
/c /I"C:\USERS\SHANE\DOCUMENTS\VISUAL STUDIO 2015\PROJECTS\EDGE\EDGE\ASSIMP\INCLUDE" /I"C:\USERS\SHANE\DOCUMENTS\VISUAL STUDIO 2015\PROJECTS\EDGE\EDGE\SDL2-2.0.5\INCLUDE" /I"C:\USERS\SHANE\DOCUMENTS\VISUAL STUDIO 2015\PROJECTS\EDGE\EDGE\GLEW-2.0.0\INCLUDE" /I"C:\USERS\SHANE\DOCUMENTS\VISUAL STUDIO 2015\PROJECTS\EDGE\EDGE\GLM\TEST\EXTERNAL" /I"C:\USERS\SHANE\DOCUMENTS\VISUAL STUDIO 2015\PROJECTS\EDGE\EDGE\GLM" /I"C:\USERS\SHANE\DOCUMENTS\VISUAL STUDIO 2015\PROJECTS\EDGE\EDGE\GLM\GLM" /I"C:\USERS\SHANE\DOCUMENTS\VISUAL STUDIO 2015\PROJECTS\EDGE\EDGE\GLEW-2.0.0\INCLUDE" /I"C:\USERS\SHANE\DOCUMENTS\VISUAL STUDIO 2015\PROJECTS\EDGE\EDGE\GLEW-2.0.0\INCLUDE\GL" /I"E:\USERS\SKING14\FINAL\EDGE\EDGE\SDL2_IMAGE-2.0.1\INCLUDE" /I"E:\USERS\SKING14\FINAL\EDGE\EDGE\SDL2_MIXER-DEVEL-2.0.1-VC\SDL2_MIXER-2.0.1\INCLUDE" /I"E:\USERS\SKING14\FINAL\EDGE\EDGE\SDL2_TTF-DEVEL-2.0.14-VC\SDL2_TTF-2.0.14\INCLUDE" /I"E:\USERS\SKING14\FINAL\EDGE\EDGE\SDL2-2.0.5\INCLUDE" /I"C:\USERS\SHANE\DOCUMENTS\VISUAL STUDIO 2015\PROJECTS\EDGE\EDGE\SDL2_MIXER-DEVEL-2.0.1-VC\SDL2_MIXER-2.0.1\INCLUDE" /I"C:\USERS\SHANE\DOCUMENTS\VISUAL STUDIO 2015\PROJECTS\EDGE\EDGE\SDL2-2.0.5\INCLUDE" /I"C:\USERS\SHANE\DOCUMENTS\VISUAL STUDIO 2015\PROJECTS\EDGE\EDGE\SDL2_TTF-DEVEL-2.0.14-VC\SDL2_TTF-2.0.14\INCLUDE" /I"C:\USERS\SHANE\DOCUMENTS\VISUAL STUDIO 2015\PROJECTS\EDGE\EDGE\SDL2_IMAGE-2.0.1\INCLUDE" /I"C:\PROGRAM FILES (X86)\VISUAL LEAK DETECTOR\INCLUDE" /Zi /nologo /W3 /WX- /sdl /O2 /Oi /Oy- /GL /D WIN32 /D NDEBUG /D _CONSOLE /D _UNICODE /D UNICODE /Gm- /EHsc /MD /GS /Gy /fp:precise /Zc:wchar_t /Zc:forScope /Zc:inline /Fo"RELEASE\\" /Fd"RELEASE\VC140.PDB" /Gd /TP /analyze- C:\USERS\SHANE\DOCUMENTS\VISUAL STUDIO 2015\PROJECTS\EDGE\EDGE\BGMUSIC.CPP
^C:\USERS\SHANE\DOCUMENTS\VISUAL STUDIO 2015\PROJECTS\EDGE\EDGE\BOMBMODEL.CPP
/c /I"C:\USERS\SHANE\DOCUMENTS\VISUAL STUDIO 2015\PROJECTS\EDGE\EDGE\ASSIMP\INCLUDE" /I"C:\USERS\SHANE\DOCUMENTS\VISUAL STUDIO 2015\PROJECTS\EDGE\EDGE\SDL2-2.0.5\INCLUDE" /I"C:\USERS\SHANE\DOCUMENTS\VISUAL STUDIO 2015\PROJECTS\EDGE\EDGE\GLEW-2.0.0\INCLUDE" /I"C:\USERS\SHANE\DOCUMENTS\VISUAL STUDIO 2015\PROJECTS\EDGE\EDGE\GLM\TEST\EXTERNAL" /I"C:\USERS\SHANE\DOCUMENTS\VISUAL STUDIO 2015\PROJECTS\EDGE\EDGE\GLM" /I"C:\USERS\SHANE\DOCUMENTS\VISUAL STUDIO 2015\PROJECTS\EDGE\EDGE\GLM\GLM" /I"C:\USERS\SHANE\DOCUMENTS\VISUAL STUDIO 2015\PROJECTS\EDGE\EDGE\GLEW-2.0.0\INCLUDE" /I"C:\USERS\SHANE\DOCUMENTS\VISUAL STUDIO 2015\PROJECTS\EDGE\EDGE\GLEW-2.0.0\INCLUDE\GL" /I"E:\USERS\SKING14\FINAL\EDGE\EDGE\SDL2_IMAGE-2.0.1\INCLUDE" /I"E:\USERS\SKING14\FINAL\EDGE\EDGE\SDL2_MIXER-DEVEL-2.0.1-VC\SDL2_MIXER-2.0.1\INCLUDE" /I"E:\USERS\SKING14\FINAL\EDGE\EDGE\SDL2_TTF-DEVEL-2.0.14-VC\SDL2_TTF-2.0.14\INCLUDE" /I"E:\USERS\SKING14\FINAL\EDGE\EDGE\SDL2-2.0.5\INCLUDE" /I"C:\USERS\SHANE\DOCUMENTS\VISUAL STUDIO 2015\PROJECTS\EDGE\EDGE\SDL2_MIXER-DEVEL-2.0.1-VC\SDL2_MIXER-2.0.1\INCLUDE" /I"C:\USERS\SHANE\DOCUMENTS\VISUAL STUDIO 2015\PROJECTS\EDGE\EDGE\SDL2-2.0.5\INCLUDE" /I"C:\USERS\SHANE\DOCUMENTS\VISUAL STUDIO 2015\PROJECTS\EDGE\EDGE\SDL2_TTF-DEVEL-2.0.14-VC\SDL2_TTF-2.0.14\INCLUDE" /I"C:\USERS\SHANE\DOCUMENTS\VISUAL STUDIO 2015\PROJECTS\EDGE\EDGE\SDL2_IMAGE-2.0.1\INCLUDE" /I"C:\PROGRAM FILES (X86)\VISUAL LEAK DETECTOR\INCLUDE" /Zi /nologo /W3 /WX- /sdl /O2 /Oi /Oy- /GL /D WIN32 /D NDEBUG /D _CONSOLE /D _UNICODE /D UNICODE /Gm- /EHsc /MD /GS /Gy /fp:precise /Zc:wchar_t /Zc:forScope /Zc:inline /Fo"RELEASE\\" /Fd"RELEASE\VC140.PDB" /Gd /TP /analyze- C:\USERS\SHANE\DOCUMENTS\VISUAL STUDIO 2015\PROJECTS\EDGE\EDGE\BOMBMODEL.CPP
^C:\USERS\SHANE\DOCUMENTS\VISUAL STUDIO 2015\PROJECTS\EDGE\EDGE\BOMBVIEW.CPP
/c /I"C:\USERS\SHANE\DOCUMENTS\VISUAL STUDIO 2015\PROJECTS\EDGE\EDGE\ASSIMP\INCLUDE" /I"C:\USERS\SHANE\DOCUMENTS\VISUAL STUDIO 2015\PROJECTS\EDGE\EDGE\SDL2-2.0.5\INCLUDE" /I"C:\USERS\SHANE\DOCUMENTS\VISUAL STUDIO 2015\PROJECTS\EDGE\EDGE\GLEW-2.0.0\INCLUDE" /I"C:\USERS\SHANE\DOCUMENTS\VISUAL STUDIO 2015\PROJECTS\EDGE\EDGE\GLM\TEST\EXTERNAL" /I"C:\USERS\SHANE\DOCUMENTS\VISUAL STUDIO 2015\PROJECTS\EDGE\EDGE\GLM" /I"C:\USERS\SHANE\DOCUMENTS\VISUAL STUDIO 2015\PROJECTS\EDGE\EDGE\GLM\GLM" /I"C:\USERS\SHANE\DOCUMENTS\VISUAL STUDIO 2015\PROJECTS\EDGE\EDGE\GLEW-2.0.0\INCLUDE" /I"C:\USERS\SHANE\DOCUMENTS\VISUAL STUDIO 2015\PROJECTS\EDGE\EDGE\GLEW-2.0.0\INCLUDE\GL" /I"E:\USERS\SKING14\FINAL\EDGE\EDGE\SDL2_IMAGE-2.0.1\INCLUDE" /I"E:\USERS\SKING14\FINAL\EDGE\EDGE\SDL2_MIXER-DEVEL-2.0.1-VC\SDL2_MIXER-2.0.1\INCLUDE" /I"E:\USERS\SKING14\FINAL\EDGE\EDGE\SDL2_TTF-DEVEL-2.0.14-VC\SDL2_TTF-2.0.14\INCLUDE" /I"E:\USERS\SKING14\FINAL\EDGE\EDGE\SDL2-2.0.5\INCLUDE" /I"C:\USERS\SHANE\DOCUMENTS\VISUAL STUDIO 2015\PROJECTS\EDGE\EDGE\SDL2_MIXER-DEVEL-2.0.1-VC\SDL2_MIXER-2.0.1\INCLUDE" /I"C:\USERS\SHANE\DOCUMENTS\VISUAL STUDIO 2015\PROJECTS\EDGE\EDGE\SDL2-2.0.5\INCLUDE" /I"C:\USERS\SHANE\DOCUMENTS\VISUAL STUDIO 2015\PROJECTS\EDGE\EDGE\SDL2_TTF-DEVEL-2.0.14-VC\SDL2_TTF-2.0.14\INCLUDE" /I"C:\USERS\SHANE\DOCUMENTS\VISUAL STUDIO 2015\PROJECTS\EDGE\EDGE\SDL2_IMAGE-2.0.1\INCLUDE" /I"C:\PROGRAM FILES (X86)\VISUAL LEAK DETECTOR\INCLUDE" /Zi /nologo /W3 /WX- /sdl /O2 /Oi /Oy- /GL /D WIN32 /D NDEBUG /D _CONSOLE /D _UNICODE /D UNICODE /Gm- /EHsc /MD /GS /Gy /fp:precise /Zc:wchar_t /Zc:forScope /Zc:inline /Fo"RELEASE\\" /Fd"RELEASE\VC140.PDB" /Gd /TP /analyze- C:\USERS\SHANE\DOCUMENTS\VISUAL STUDIO 2015\PROJECTS\EDGE\EDGE\BOMBVIEW.CPP
^C:\USERS\SHANE\DOCUMENTS\VISUAL STUDIO 2015\PROJECTS\EDGE\EDGE\COLLISIONSYSTEM.CPP
/c /I"C:\USERS\SHANE\DOCUMENTS\VISUAL STUDIO 2015\PROJECTS\EDGE\EDGE\ASSIMP\INCLUDE" /I"C:\USERS\SHANE\DOCUMENTS\VISUAL STUDIO 2015\PROJECTS\EDGE\EDGE\SDL2-2.0.5\INCLUDE" /I"C:\USERS\SHANE\DOCUMENTS\VISUAL STUDIO 2015\PROJECTS\EDGE\EDGE\GLEW-2.0.0\INCLUDE" /I"C:\USERS\SHANE\DOCUMENTS\VISUAL STUDIO 2015\PROJECTS\EDGE\EDGE\GLM\TEST\EXTERNAL" /I"C:\USERS\SHANE\DOCUMENTS\VISUAL STUDIO 2015\PROJECTS\EDGE\EDGE\GLM" /I"C:\USERS\SHANE\DOCUMENTS\VISUAL STUDIO 2015\PROJECTS\EDGE\EDGE\GLM\GLM" /I"C:\USERS\SHANE\DOCUMENTS\VISUAL STUDIO 2015\PROJECTS\EDGE\EDGE\GLEW-2.0.0\INCLUDE" /I"C:\USERS\SHANE\DOCUMENTS\VISUAL STUDIO 2015\PROJECTS\EDGE\EDGE\GLEW-2.0.0\INCLUDE\GL" /I"E:\USERS\SKING14\FINAL\EDGE\EDGE\SDL2_IMAGE-2.0.1\INCLUDE" /I"E:\USERS\SKING14\FINAL\EDGE\EDGE\SDL2_MIXER-DEVEL-2.0.1-VC\SDL2_MIXER-2.0.1\INCLUDE" /I"E:\USERS\SKING14\FINAL\EDGE\EDGE\SDL2_TTF-DEVEL-2.0.14-VC\SDL2_TTF-2.0.14\INCLUDE" /I"E:\USERS\SKING14\FINAL\EDGE\EDGE\SDL2-2.0.5\INCLUDE" /I"C:\USERS\SHANE\DOCUMENTS\VISUAL STUDIO 2015\PROJECTS\EDGE\EDGE\SDL2_MIXER-DEVEL-2.0.1-VC\SDL2_MIXER-2.0.1\INCLUDE" /I"C:\USERS\SHANE\DOCUMENTS\VISUAL STUDIO 2015\PROJECTS\EDGE\EDGE\SDL2-2.0.5\INCLUDE" /I"C:\USERS\SHANE\DOCUMENTS\VISUAL STUDIO 2015\PROJECTS\EDGE\EDGE\SDL2_TTF-DEVEL-2.0.14-VC\SDL2_TTF-2.0.14\INCLUDE" /I"C:\USERS\SHANE\DOCUMENTS\VISUAL STUDIO 2015\PROJECTS\EDGE\EDGE\SDL2_IMAGE-2.0.1\INCLUDE" /I"C:\PROGRAM FILES (X86)\VISUAL LEAK DETECTOR\INCLUDE" /Zi /nologo /W3 /WX- /sdl /O2 /Oi /Oy- /GL /D WIN32 /D NDEBUG /D _CONSOLE /D _UNICODE /D UNICODE /Gm- /EHsc /MD /GS /Gy /fp:precise /Zc:wchar_t /Zc:forScope /Zc:inline /Fo"RELEASE\\" /Fd"RELEASE\VC140.PDB" /Gd /TP /analyze- C:\USERS\SHANE\DOCUMENTS\VISUAL STUDIO 2015\PROJECTS\EDGE\EDGE\COLLISIONSYSTEM.CPP
^C:\USERS\SHANE\DOCUMENTS\VISUAL STUDIO 2015\PROJECTS\EDGE\EDGE\CONTROLLER.CPP
/c /I"C:\USERS\SHANE\DOCUMENTS\VISUAL STUDIO 2015\PROJECTS\EDGE\EDGE\ASSIMP\INCLUDE" /I"C:\USERS\SHANE\DOCUMENTS\VISUAL STUDIO 2015\PROJECTS\EDGE\EDGE\SDL2-2.0.5\INCLUDE" /I"C:\USERS\SHANE\DOCUMENTS\VISUAL STUDIO 2015\PROJECTS\EDGE\EDGE\GLEW-2.0.0\INCLUDE" /I"C:\USERS\SHANE\DOCUMENTS\VISUAL STUDIO 2015\PROJECTS\EDGE\EDGE\GLM\TEST\EXTERNAL" /I"C:\USERS\SHANE\DOCUMENTS\VISUAL STUDIO 2015\PROJECTS\EDGE\EDGE\GLM" /I"C:\USERS\SHANE\DOCUMENTS\VISUAL STUDIO 2015\PROJECTS\EDGE\EDGE\GLM\GLM" /I"C:\USERS\SHANE\DOCUMENTS\VISUAL STUDIO 2015\PROJECTS\EDGE\EDGE\GLEW-2.0.0\INCLUDE" /I"C:\USERS\SHANE\DOCUMENTS\VISUAL STUDIO 2015\PROJECTS\EDGE\EDGE\GLEW-2.0.0\INCLUDE\GL" /I"E:\USERS\SKING14\FINAL\EDGE\EDGE\SDL2_IMAGE-2.0.1\INCLUDE" /I"E:\USERS\SKING14\FINAL\EDGE\EDGE\SDL2_MIXER-DEVEL-2.0.1-VC\SDL2_MIXER-2.0.1\INCLUDE" /I"E:\USERS\SKING14\FINAL\EDGE\EDGE\SDL2_TTF-DEVEL-2.0.14-VC\SDL2_TTF-2.0.14\INCLUDE" /I"E:\USERS\SKING14\FINAL\EDGE\EDGE\SDL2-2.0.5\INCLUDE" /I"C:\USERS\SHANE\DOCUMENTS\VISUAL STUDIO 2015\PROJECTS\EDGE\EDGE\SDL2_MIXER-DEVEL-2.0.1-VC\SDL2_MIXER-2.0.1\INCLUDE" /I"C:\USERS\SHANE\DOCUMENTS\VISUAL STUDIO 2015\PROJECTS\EDGE\EDGE\SDL2-2.0.5\INCLUDE" /I"C:\USERS\SHANE\DOCUMENTS\VISUAL STUDIO 2015\PROJECTS\EDGE\EDGE\SDL2_TTF-DEVEL-2.0.14-VC\SDL2_TTF-2.0.14\INCLUDE" /I"C:\USERS\SHANE\DOCUMENTS\VISUAL STUDIO 2015\PROJECTS\EDGE\EDGE\SDL2_IMAGE-2.0.1\INCLUDE" /I"C:\PROGRAM FILES (X86)\VISUAL LEAK DETECTOR\INCLUDE" /Zi /nologo /W3 /WX- /sdl /O2 /Oi /Oy- /GL /D WIN32 /D NDEBUG /D _CONSOLE /D _UNICODE /D UNICODE /Gm- /EHsc /MD /GS /Gy /fp:precise /Zc:wchar_t /Zc:forScope /Zc:inline /Fo"RELEASE\\" /Fd"RELEASE\VC140.PDB" /Gd /TP /analyze- C:\USERS\SHANE\DOCUMENTS\VISUAL STUDIO 2015\PROJECTS\EDGE\EDGE\CONTROLLER.CPP
^C:\USERS\SHANE\DOCUMENTS\VISUAL STUDIO 2015\PROJECTS\EDGE\EDGE\CRATEMODEL.CPP
/c /I"C:\USERS\SHANE\DOCUMENTS\VISUAL STUDIO 2015\PROJECTS\EDGE\EDGE\ASSIMP\INCLUDE" /I"C:\USERS\SHANE\DOCUMENTS\VISUAL STUDIO 2015\PROJECTS\EDGE\EDGE\SDL2-2.0.5\INCLUDE" /I"C:\USERS\SHANE\DOCUMENTS\VISUAL STUDIO 2015\PROJECTS\EDGE\EDGE\GLEW-2.0.0\INCLUDE" /I"C:\USERS\SHANE\DOCUMENTS\VISUAL STUDIO 2015\PROJECTS\EDGE\EDGE\GLM\TEST\EXTERNAL" /I"C:\USERS\SHANE\DOCUMENTS\VISUAL STUDIO 2015\PROJECTS\EDGE\EDGE\GLM" /I"C:\USERS\SHANE\DOCUMENTS\VISUAL STUDIO 2015\PROJECTS\EDGE\EDGE\GLM\GLM" /I"C:\USERS\SHANE\DOCUMENTS\VISUAL STUDIO 2015\PROJECTS\EDGE\EDGE\GLEW-2.0.0\INCLUDE" /I"C:\USERS\SHANE\DOCUMENTS\VISUAL STUDIO 2015\PROJECTS\EDGE\EDGE\GLEW-2.0.0\INCLUDE\GL" /I"E:\USERS\SKING14\FINAL\EDGE\EDGE\SDL2_IMAGE-2.0.1\INCLUDE" /I"E:\USERS\SKING14\FINAL\EDGE\EDGE\SDL2_MIXER-DEVEL-2.0.1-VC\SDL2_MIXER-2.0.1\INCLUDE" /I"E:\USERS\SKING14\FINAL\EDGE\EDGE\SDL2_TTF-DEVEL-2.0.14-VC\SDL2_TTF-2.0.14\INCLUDE" /I"E:\USERS\SKING14\FINAL\EDGE\EDGE\SDL2-2.0.5\INCLUDE" /I"C:\USERS\SHANE\DOCUMENTS\VISUAL STUDIO 2015\PROJECTS\EDGE\EDGE\SDL2_MIXER-DEVEL-2.0.1-VC\SDL2_MIXER-2.0.1\INCLUDE" /I"C:\USERS\SHANE\DOCUMENTS\VISUAL STUDIO 2015\PROJECTS\EDGE\EDGE\SDL2-2.0.5\INCLUDE" /I"C:\USERS\SHANE\DOCUMENTS\VISUAL STUDIO 2015\PROJECTS\EDGE\EDGE\SDL2_TTF-DEVEL-2.0.14-VC\SDL2_TTF-2.0.14\INCLUDE" /I"C:\USERS\SHANE\DOCUMENTS\VISUAL STUDIO 2015\PROJECTS\EDGE\EDGE\SDL2_IMAGE-2.0.1\INCLUDE" /I"C:\PROGRAM FILES (X86)\VISUAL LEAK DETECTOR\INCLUDE" /Zi /nologo /W3 /WX- /sdl /O2 /Oi /Oy- /GL /D WIN32 /D NDEBUG /D _CONSOLE /D _UNICODE /D UNICODE /Gm- /EHsc /MD /GS /Gy /fp:precise /Zc:wchar_t /Zc:forScope /Zc:inline /Fo"RELEASE\\" /Fd"RELEASE\VC140.PDB" /Gd /TP /analyze- C:\USERS\SHANE\DOCUMENTS\VISUAL STUDIO 2015\PROJECTS\EDGE\EDGE\CRATEMODEL.CPP
^C:\USERS\SHANE\DOCUMENTS\VISUAL STUDIO 2015\PROJECTS\EDGE\EDGE\DIALOGUEBOX.CPP
/c /I"C:\USERS\SHANE\DOCUMENTS\VISUAL STUDIO 2015\PROJECTS\EDGE\EDGE\ASSIMP\INCLUDE" /I"C:\USERS\SHANE\DOCUMENTS\VISUAL STUDIO 2015\PROJECTS\EDGE\EDGE\SDL2-2.0.5\INCLUDE" /I"C:\USERS\SHANE\DOCUMENTS\VISUAL STUDIO 2015\PROJECTS\EDGE\EDGE\GLEW-2.0.0\INCLUDE" /I"C:\USERS\SHANE\DOCUMENTS\VISUAL STUDIO 2015\PROJECTS\EDGE\EDGE\GLM\TEST\EXTERNAL" /I"C:\USERS\SHANE\DOCUMENTS\VISUAL STUDIO 2015\PROJECTS\EDGE\EDGE\GLM" /I"C:\USERS\SHANE\DOCUMENTS\VISUAL STUDIO 2015\PROJECTS\EDGE\EDGE\GLM\GLM" /I"C:\USERS\SHANE\DOCUMENTS\VISUAL STUDIO 2015\PROJECTS\EDGE\EDGE\GLEW-2.0.0\INCLUDE" /I"C:\USERS\SHANE\DOCUMENTS\VISUAL STUDIO 2015\PROJECTS\EDGE\EDGE\GLEW-2.0.0\INCLUDE\GL" /I"E:\USERS\SKING14\FINAL\EDGE\EDGE\SDL2_IMAGE-2.0.1\INCLUDE" /I"E:\USERS\SKING14\FINAL\EDGE\EDGE\SDL2_MIXER-DEVEL-2.0.1-VC\SDL2_MIXER-2.0.1\INCLUDE" /I"E:\USERS\SKING14\FINAL\EDGE\EDGE\SDL2_TTF-DEVEL-2.0.14-VC\SDL2_TTF-2.0.14\INCLUDE" /I"E:\USERS\SKING14\FINAL\EDGE\EDGE\SDL2-2.0.5\INCLUDE" /I"C:\USERS\SHANE\DOCUMENTS\VISUAL STUDIO 2015\PROJECTS\EDGE\EDGE\SDL2_MIXER-DEVEL-2.0.1-VC\SDL2_MIXER-2.0.1\INCLUDE" /I"C:\USERS\SHANE\DOCUMENTS\VISUAL STUDIO 2015\PROJECTS\EDGE\EDGE\SDL2-2.0.5\INCLUDE" /I"C:\USERS\SHANE\DOCUMENTS\VISUAL STUDIO 2015\PROJECTS\EDGE\EDGE\SDL2_TTF-DEVEL-2.0.14-VC\SDL2_TTF-2.0.14\INCLUDE" /I"C:\USERS\SHANE\DOCUMENTS\VISUAL STUDIO 2015\PROJECTS\EDGE\EDGE\SDL2_IMAGE-2.0.1\INCLUDE" /I"C:\PROGRAM FILES (X86)\VISUAL LEAK DETECTOR\INCLUDE" /Zi /nologo /W3 /WX- /sdl /O2 /Oi /Oy- /GL /D WIN32 /D NDEBUG /D _CONSOLE /D _UNICODE /D UNICODE /Gm- /EHsc /MD /GS /Gy /fp:precise /Zc:wchar_t /Zc:forScope /Zc:inline /Fo"RELEASE\\" /Fd"RELEASE\VC140.PDB" /Gd /TP /analyze- C:\USERS\SHANE\DOCUMENTS\VISUAL STUDIO 2015\PROJECTS\EDGE\EDGE\DIALOGUEBOX.CPP
^C:\USERS\SHANE\DOCUMENTS\VISUAL STUDIO 2015\PROJECTS\EDGE\EDGE\DIALOGUEBOXSYSTEM.CPP
/c /I"C:\USERS\SHANE\DOCUMENTS\VISUAL STUDIO 2015\PROJECTS\EDGE\EDGE\ASSIMP\INCLUDE" /I"C:\USERS\SHANE\DOCUMENTS\VISUAL STUDIO 2015\PROJECTS\EDGE\EDGE\SDL2-2.0.5\INCLUDE" /I"C:\USERS\SHANE\DOCUMENTS\VISUAL STUDIO 2015\PROJECTS\EDGE\EDGE\GLEW-2.0.0\INCLUDE" /I"C:\USERS\SHANE\DOCUMENTS\VISUAL STUDIO 2015\PROJECTS\EDGE\EDGE\GLM\TEST\EXTERNAL" /I"C:\USERS\SHANE\DOCUMENTS\VISUAL STUDIO 2015\PROJECTS\EDGE\EDGE\GLM" /I"C:\USERS\SHANE\DOCUMENTS\VISUAL STUDIO 2015\PROJECTS\EDGE\EDGE\GLM\GLM" /I"C:\USERS\SHANE\DOCUMENTS\VISUAL STUDIO 2015\PROJECTS\EDGE\EDGE\GLEW-2.0.0\INCLUDE" /I"C:\USERS\SHANE\DOCUMENTS\VISUAL STUDIO 2015\PROJECTS\EDGE\EDGE\GLEW-2.0.0\INCLUDE\GL" /I"E:\USERS\SKING14\FINAL\EDGE\EDGE\SDL2_IMAGE-2.0.1\INCLUDE" /I"E:\USERS\SKING14\FINAL\EDGE\EDGE\SDL2_MIXER-DEVEL-2.0.1-VC\SDL2_MIXER-2.0.1\INCLUDE" /I"E:\USERS\SKING14\FINAL\EDGE\EDGE\SDL2_TTF-DEVEL-2.0.14-VC\SDL2_TTF-2.0.14\INCLUDE" /I"E:\USERS\SKING14\FINAL\EDGE\EDGE\SDL2-2.0.5\INCLUDE" /I"C:\USERS\SHANE\DOCUMENTS\VISUAL STUDIO 2015\PROJECTS\EDGE\EDGE\SDL2_MIXER-DEVEL-2.0.1-VC\SDL2_MIXER-2.0.1\INCLUDE" /I"C:\USERS\SHANE\DOCUMENTS\VISUAL STUDIO 2015\PROJECTS\EDGE\EDGE\SDL2-2.0.5\INCLUDE" /I"C:\USERS\SHANE\DOCUMENTS\VISUAL STUDIO 2015\PROJECTS\EDGE\EDGE\SDL2_TTF-DEVEL-2.0.14-VC\SDL2_TTF-2.0.14\INCLUDE" /I"C:\USERS\SHANE\DOCUMENTS\VISUAL STUDIO 2015\PROJECTS\EDGE\EDGE\SDL2_IMAGE-2.0.1\INCLUDE" /I"C:\PROGRAM FILES (X86)\VISUAL LEAK DETECTOR\INCLUDE" /Zi /nologo /W3 /WX- /sdl /O2 /Oi /Oy- /GL /D WIN32 /D NDEBUG /D _CONSOLE /D _UNICODE /D UNICODE /Gm- /EHsc /MD /GS /Gy /fp:precise /Zc:wchar_t /Zc:forScope /Zc:inline /Fo"RELEASE\\" /Fd"RELEASE\VC140.PDB" /Gd /TP /analyze- C:\USERS\SHANE\DOCUMENTS\VISUAL STUDIO 2015\PROJECTS\EDGE\EDGE\DIALOGUEBOXSYSTEM.CPP
^C:\USERS\SHANE\DOCUMENTS\VISUAL STUDIO 2015\PROJECTS\EDGE\EDGE\DOORCONTROLLER.CPP
/c /I"C:\USERS\SHANE\DOCUMENTS\VISUAL STUDIO 2015\PROJECTS\EDGE\EDGE\ASSIMP\INCLUDE" /I"C:\USERS\SHANE\DOCUMENTS\VISUAL STUDIO 2015\PROJECTS\EDGE\EDGE\SDL2-2.0.5\INCLUDE" /I"C:\USERS\SHANE\DOCUMENTS\VISUAL STUDIO 2015\PROJECTS\EDGE\EDGE\GLEW-2.0.0\INCLUDE" /I"C:\USERS\SHANE\DOCUMENTS\VISUAL STUDIO 2015\PROJECTS\EDGE\EDGE\GLM\TEST\EXTERNAL" /I"C:\USERS\SHANE\DOCUMENTS\VISUAL STUDIO 2015\PROJECTS\EDGE\EDGE\GLM" /I"C:\USERS\SHANE\DOCUMENTS\VISUAL STUDIO 2015\PROJECTS\EDGE\EDGE\GLM\GLM" /I"C:\USERS\SHANE\DOCUMENTS\VISUAL STUDIO 2015\PROJECTS\EDGE\EDGE\GLEW-2.0.0\INCLUDE" /I"C:\USERS\SHANE\DOCUMENTS\VISUAL STUDIO 2015\PROJECTS\EDGE\EDGE\GLEW-2.0.0\INCLUDE\GL" /I"E:\USERS\SKING14\FINAL\EDGE\EDGE\SDL2_IMAGE-2.0.1\INCLUDE" /I"E:\USERS\SKING14\FINAL\EDGE\EDGE\SDL2_MIXER-DEVEL-2.0.1-VC\SDL2_MIXER-2.0.1\INCLUDE" /I"E:\USERS\SKING14\FINAL\EDGE\EDGE\SDL2_TTF-DEVEL-2.0.14-VC\SDL2_TTF-2.0.14\INCLUDE" /I"E:\USERS\SKING14\FINAL\EDGE\EDGE\SDL2-2.0.5\INCLUDE" /I"C:\USERS\SHANE\DOCUMENTS\VISUAL STUDIO 2015\PROJECTS\EDGE\EDGE\SDL2_MIXER-DEVEL-2.0.1-VC\SDL2_MIXER-2.0.1\INCLUDE" /I"C:\USERS\SHANE\DOCUMENTS\VISUAL STUDIO 2015\PROJECTS\EDGE\EDGE\SDL2-2.0.5\INCLUDE" /I"C:\USERS\SHANE\DOCUMENTS\VISUAL STUDIO 2015\PROJECTS\EDGE\EDGE\SDL2_TTF-DEVEL-2.0.14-VC\SDL2_TTF-2.0.14\INCLUDE" /I"C:\USERS\SHANE\DOCUMENTS\VISUAL STUDIO 2015\PROJECTS\EDGE\EDGE\SDL2_IMAGE-2.0.1\INCLUDE" /I"C:\PROGRAM FILES (X86)\VISUAL LEAK DETECTOR\INCLUDE" /Zi /nologo /W3 /WX- /sdl /O2 /Oi /Oy- /GL /D WIN32 /D NDEBUG /D _CONSOLE /D _UNICODE /D UNICODE /Gm- /EHsc /MD /GS /Gy /fp:precise /Zc:wchar_t /Zc:forScope /Zc:inline /Fo"RELEASE\\" /Fd"RELEASE\VC140.PDB" /Gd /TP /analyze- C:\USERS\SHANE\DOCUMENTS\VISUAL STUDIO 2015\PROJECTS\EDGE\EDGE\DOORCONTROLLER.CPP
^C:\USERS\SHANE\DOCUMENTS\VISUAL STUDIO 2015\PROJECTS\EDGE\EDGE\DOORMODEL.CPP
/c /I"C:\USERS\SHANE\DOCUMENTS\VISUAL STUDIO 2015\PROJECTS\EDGE\EDGE\ASSIMP\INCLUDE" /I"C:\USERS\SHANE\DOCUMENTS\VISUAL STUDIO 2015\PROJECTS\EDGE\EDGE\SDL2-2.0.5\INCLUDE" /I"C:\USERS\SHANE\DOCUMENTS\VISUAL STUDIO 2015\PROJECTS\EDGE\EDGE\GLEW-2.0.0\INCLUDE" /I"C:\USERS\SHANE\DOCUMENTS\VISUAL STUDIO 2015\PROJECTS\EDGE\EDGE\GLM\TEST\EXTERNAL" /I"C:\USERS\SHANE\DOCUMENTS\VISUAL STUDIO 2015\PROJECTS\EDGE\EDGE\GLM" /I"C:\USERS\SHANE\DOCUMENTS\VISUAL STUDIO 2015\PROJECTS\EDGE\EDGE\GLM\GLM" /I"C:\USERS\SHANE\DOCUMENTS\VISUAL STUDIO 2015\PROJECTS\EDGE\EDGE\GLEW-2.0.0\INCLUDE" /I"C:\USERS\SHANE\DOCUMENTS\VISUAL STUDIO 2015\PROJECTS\EDGE\EDGE\GLEW-2.0.0\INCLUDE\GL" /I"E:\USERS\SKING14\FINAL\EDGE\EDGE\SDL2_IMAGE-2.0.1\INCLUDE" /I"E:\USERS\SKING14\FINAL\EDGE\EDGE\SDL2_MIXER-DEVEL-2.0.1-VC\SDL2_MIXER-2.0.1\INCLUDE" /I"E:\USERS\SKING14\FINAL\EDGE\EDGE\SDL2_TTF-DEVEL-2.0.14-VC\SDL2_TTF-2.0.14\INCLUDE" /I"E:\USERS\SKING14\FINAL\EDGE\EDGE\SDL2-2.0.5\INCLUDE" /I"C:\USERS\SHANE\DOCUMENTS\VISUAL STUDIO 2015\PROJECTS\EDGE\EDGE\SDL2_MIXER-DEVEL-2.0.1-VC\SDL2_MIXER-2.0.1\INCLUDE" /I"C:\USERS\SHANE\DOCUMENTS\VISUAL STUDIO 2015\PROJECTS\EDGE\EDGE\SDL2-2.0.5\INCLUDE" /I"C:\USERS\SHANE\DOCUMENTS\VISUAL STUDIO 2015\PROJECTS\EDGE\EDGE\SDL2_TTF-DEVEL-2.0.14-VC\SDL2_TTF-2.0.14\INCLUDE" /I"C:\USERS\SHANE\DOCUMENTS\VISUAL STUDIO 2015\PROJECTS\EDGE\EDGE\SDL2_IMAGE-2.0.1\INCLUDE" /I"C:\PROGRAM FILES (X86)\VISUAL LEAK DETECTOR\INCLUDE" /Zi /nologo /W3 /WX- /sdl /O2 /Oi /Oy- /GL /D WIN32 /D NDEBUG /D _CONSOLE /D _UNICODE /D UNICODE /Gm- /EHsc /MD /GS /Gy /fp:precise /Zc:wchar_t /Zc:forScope /Zc:inline /Fo"RELEASE\\" /Fd"RELEASE\VC140.PDB" /Gd /TP /analyze- C:\USERS\SHANE\DOCUMENTS\VISUAL STUDIO 2015\PROJECTS\EDGE\EDGE\DOORMODEL.CPP
^C:\USERS\SHANE\DOCUMENTS\VISUAL STUDIO 2015\PROJECTS\EDGE\EDGE\DOORSYSTEM.CPP
/c /I"C:\USERS\SHANE\DOCUMENTS\VISUAL STUDIO 2015\PROJECTS\EDGE\EDGE\ASSIMP\INCLUDE" /I"C:\USERS\SHANE\DOCUMENTS\VISUAL STUDIO 2015\PROJECTS\EDGE\EDGE\SDL2-2.0.5\INCLUDE" /I"C:\USERS\SHANE\DOCUMENTS\VISUAL STUDIO 2015\PROJECTS\EDGE\EDGE\GLEW-2.0.0\INCLUDE" /I"C:\USERS\SHANE\DOCUMENTS\VISUAL STUDIO 2015\PROJECTS\EDGE\EDGE\GLM\TEST\EXTERNAL" /I"C:\USERS\SHANE\DOCUMENTS\VISUAL STUDIO 2015\PROJECTS\EDGE\EDGE\GLM" /I"C:\USERS\SHANE\DOCUMENTS\VISUAL STUDIO 2015\PROJECTS\EDGE\EDGE\GLM\GLM" /I"C:\USERS\SHANE\DOCUMENTS\VISUAL STUDIO 2015\PROJECTS\EDGE\EDGE\GLEW-2.0.0\INCLUDE" /I"C:\USERS\SHANE\DOCUMENTS\VISUAL STUDIO 2015\PROJECTS\EDGE\EDGE\GLEW-2.0.0\INCLUDE\GL" /I"E:\USERS\SKING14\FINAL\EDGE\EDGE\SDL2_IMAGE-2.0.1\INCLUDE" /I"E:\USERS\SKING14\FINAL\EDGE\EDGE\SDL2_MIXER-DEVEL-2.0.1-VC\SDL2_MIXER-2.0.1\INCLUDE" /I"E:\USERS\SKING14\FINAL\EDGE\EDGE\SDL2_TTF-DEVEL-2.0.14-VC\SDL2_TTF-2.0.14\INCLUDE" /I"E:\USERS\SKING14\FINAL\EDGE\EDGE\SDL2-2.0.5\INCLUDE" /I"C:\USERS\SHANE\DOCUMENTS\VISUAL STUDIO 2015\PROJECTS\EDGE\EDGE\SDL2_MIXER-DEVEL-2.0.1-VC\SDL2_MIXER-2.0.1\INCLUDE" /I"C:\USERS\SHANE\DOCUMENTS\VISUAL STUDIO 2015\PROJECTS\EDGE\EDGE\SDL2-2.0.5\INCLUDE" /I"C:\USERS\SHANE\DOCUMENTS\VISUAL STUDIO 2015\PROJECTS\EDGE\EDGE\SDL2_TTF-DEVEL-2.0.14-VC\SDL2_TTF-2.0.14\INCLUDE" /I"C:\USERS\SHANE\DOCUMENTS\VISUAL STUDIO 2015\PROJECTS\EDGE\EDGE\SDL2_IMAGE-2.0.1\INCLUDE" /I"C:\PROGRAM FILES (X86)\VISUAL LEAK DETECTOR\INCLUDE" /Zi /nologo /W3 /WX- /sdl /O2 /Oi /Oy- /GL /D WIN32 /D NDEBUG /D _CONSOLE /D _UNICODE /D UNICODE /Gm- /EHsc /MD /GS /Gy /fp:precise /Zc:wchar_t /Zc:forScope /Zc:inline /Fo"RELEASE\\" /Fd"RELEASE\VC140.PDB" /Gd /TP /analyze- C:\USERS\SHANE\DOCUMENTS\VISUAL STUDIO 2015\PROJECTS\EDGE\EDGE\DOORSYSTEM.CPP
^C:\USERS\SHANE\DOCUMENTS\VISUAL STUDIO 2015\PROJECTS\EDGE\EDGE\DOORVIEW.CPP
/c /I"C:\USERS\SHANE\DOCUMENTS\VISUAL STUDIO 2015\PROJECTS\EDGE\EDGE\ASSIMP\INCLUDE" /I"C:\USERS\SHANE\DOCUMENTS\VISUAL STUDIO 2015\PROJECTS\EDGE\EDGE\SDL2-2.0.5\INCLUDE" /I"C:\USERS\SHANE\DOCUMENTS\VISUAL STUDIO 2015\PROJECTS\EDGE\EDGE\GLEW-2.0.0\INCLUDE" /I"C:\USERS\SHANE\DOCUMENTS\VISUAL STUDIO 2015\PROJECTS\EDGE\EDGE\GLM\TEST\EXTERNAL" /I"C:\USERS\SHANE\DOCUMENTS\VISUAL STUDIO 2015\PROJECTS\EDGE\EDGE\GLM" /I"C:\USERS\SHANE\DOCUMENTS\VISUAL STUDIO 2015\PROJECTS\EDGE\EDGE\GLM\GLM" /I"C:\USERS\SHANE\DOCUMENTS\VISUAL STUDIO 2015\PROJECTS\EDGE\EDGE\GLEW-2.0.0\INCLUDE" /I"C:\USERS\SHANE\DOCUMENTS\VISUAL STUDIO 2015\PROJECTS\EDGE\EDGE\GLEW-2.0.0\INCLUDE\GL" /I"E:\USERS\SKING14\FINAL\EDGE\EDGE\SDL2_IMAGE-2.0.1\INCLUDE" /I"E:\USERS\SKING14\FINAL\EDGE\EDGE\SDL2_MIXER-DEVEL-2.0.1-VC\SDL2_MIXER-2.0.1\INCLUDE" /I"E:\USERS\SKING14\FINAL\EDGE\EDGE\SDL2_TTF-DEVEL-2.0.14-VC\SDL2_TTF-2.0.14\INCLUDE" /I"E:\USERS\SKING14\FINAL\EDGE\EDGE\SDL2-2.0.5\INCLUDE" /I"C:\USERS\SHANE\DOCUMENTS\VISUAL STUDIO 2015\PROJECTS\EDGE\EDGE\SDL2_MIXER-DEVEL-2.0.1-VC\SDL2_MIXER-2.0.1\INCLUDE" /I"C:\USERS\SHANE\DOCUMENTS\VISUAL STUDIO 2015\PROJECTS\EDGE\EDGE\SDL2-2.0.5\INCLUDE" /I"C:\USERS\SHANE\DOCUMENTS\VISUAL STUDIO 2015\PROJECTS\EDGE\EDGE\SDL2_TTF-DEVEL-2.0.14-VC\SDL2_TTF-2.0.14\INCLUDE" /I"C:\USERS\SHANE\DOCUMENTS\VISUAL STUDIO 2015\PROJECTS\EDGE\EDGE\SDL2_IMAGE-2.0.1\INCLUDE" /I"C:\PROGRAM FILES (X86)\VISUAL LEAK DETECTOR\INCLUDE" /Zi /nologo /W3 /WX- /sdl /O2 /Oi /Oy- /GL /D WIN32 /D NDEBUG /D _CONSOLE /D _UNICODE /D UNICODE /Gm- /EHsc /MD /GS /Gy /fp:precise /Zc:wchar_t /Zc:forScope /Zc:inline /Fo"RELEASE\\" /Fd"RELEASE\VC140.PDB" /Gd /TP /analyze- C:\USERS\SHANE\DOCUMENTS\VISUAL STUDIO 2015\PROJECTS\EDGE\EDGE\DOORVIEW.CPP
^C:\USERS\SHANE\DOCUMENTS\VISUAL STUDIO 2015\PROJECTS\EDGE\EDGE\EVENTSYSTEM.CPP
/c /I"C:\USERS\SHANE\DOCUMENTS\VISUAL STUDIO 2015\PROJECTS\EDGE\EDGE\ASSIMP\INCLUDE" /I"C:\USERS\SHANE\DOCUMENTS\VISUAL STUDIO 2015\PROJECTS\EDGE\EDGE\SDL2-2.0.5\INCLUDE" /I"C:\USERS\SHANE\DOCUMENTS\VISUAL STUDIO 2015\PROJECTS\EDGE\EDGE\GLEW-2.0.0\INCLUDE" /I"C:\USERS\SHANE\DOCUMENTS\VISUAL STUDIO 2015\PROJECTS\EDGE\EDGE\GLM\TEST\EXTERNAL" /I"C:\USERS\SHANE\DOCUMENTS\VISUAL STUDIO 2015\PROJECTS\EDGE\EDGE\GLM" /I"C:\USERS\SHANE\DOCUMENTS\VISUAL STUDIO 2015\PROJECTS\EDGE\EDGE\GLM\GLM" /I"C:\USERS\SHANE\DOCUMENTS\VISUAL STUDIO 2015\PROJECTS\EDGE\EDGE\GLEW-2.0.0\INCLUDE" /I"C:\USERS\SHANE\DOCUMENTS\VISUAL STUDIO 2015\PROJECTS\EDGE\EDGE\GLEW-2.0.0\INCLUDE\GL" /I"E:\USERS\SKING14\FINAL\EDGE\EDGE\SDL2_IMAGE-2.0.1\INCLUDE" /I"E:\USERS\SKING14\FINAL\EDGE\EDGE\SDL2_MIXER-DEVEL-2.0.1-VC\SDL2_MIXER-2.0.1\INCLUDE" /I"E:\USERS\SKING14\FINAL\EDGE\EDGE\SDL2_TTF-DEVEL-2.0.14-VC\SDL2_TTF-2.0.14\INCLUDE" /I"E:\USERS\SKING14\FINAL\EDGE\EDGE\SDL2-2.0.5\INCLUDE" /I"C:\USERS\SHANE\DOCUMENTS\VISUAL STUDIO 2015\PROJECTS\EDGE\EDGE\SDL2_MIXER-DEVEL-2.0.1-VC\SDL2_MIXER-2.0.1\INCLUDE" /I"C:\USERS\SHANE\DOCUMENTS\VISUAL STUDIO 2015\PROJECTS\EDGE\EDGE\SDL2-2.0.5\INCLUDE" /I"C:\USERS\SHANE\DOCUMENTS\VISUAL STUDIO 2015\PROJECTS\EDGE\EDGE\SDL2_TTF-DEVEL-2.0.14-VC\SDL2_TTF-2.0.14\INCLUDE" /I"C:\USERS\SHANE\DOCUMENTS\VISUAL STUDIO 2015\PROJECTS\EDGE\EDGE\SDL2_IMAGE-2.0.1\INCLUDE" /I"C:\PROGRAM FILES (X86)\VISUAL LEAK DETECTOR\INCLUDE" /Zi /nologo /W3 /WX- /sdl /O2 /Oi /Oy- /GL /D WIN32 /D NDEBUG /D _CONSOLE /D _UNICODE /D UNICODE /Gm- /EHsc /MD /GS /Gy /fp:precise /Zc:wchar_t /Zc:forScope /Zc:inline /Fo"RELEASE\\" /Fd"RELEASE\VC140.PDB" /Gd /TP /analyze- C:\USERS\SHANE\DOCUMENTS\VISUAL STUDIO 2015\PROJECTS\EDGE\EDGE\EVENTSYSTEM.CPP
^C:\USERS\SHANE\DOCUMENTS\VISUAL STUDIO 2015\PROJECTS\EDGE\EDGE\GAMESTATEGAMEOVER.CPP
/c /I"C:\USERS\SHANE\DOCUMENTS\VISUAL STUDIO 2015\PROJECTS\EDGE\EDGE\ASSIMP\INCLUDE" /I"C:\USERS\SHANE\DOCUMENTS\VISUAL STUDIO 2015\PROJECTS\EDGE\EDGE\SDL2-2.0.5\INCLUDE" /I"C:\USERS\SHANE\DOCUMENTS\VISUAL STUDIO 2015\PROJECTS\EDGE\EDGE\GLEW-2.0.0\INCLUDE" /I"C:\USERS\SHANE\DOCUMENTS\VISUAL STUDIO 2015\PROJECTS\EDGE\EDGE\GLM\TEST\EXTERNAL" /I"C:\USERS\SHANE\DOCUMENTS\VISUAL STUDIO 2015\PROJECTS\EDGE\EDGE\GLM" /I"C:\USERS\SHANE\DOCUMENTS\VISUAL STUDIO 2015\PROJECTS\EDGE\EDGE\GLM\GLM" /I"C:\USERS\SHANE\DOCUMENTS\VISUAL STUDIO 2015\PROJECTS\EDGE\EDGE\GLEW-2.0.0\INCLUDE" /I"C:\USERS\SHANE\DOCUMENTS\VISUAL STUDIO 2015\PROJECTS\EDGE\EDGE\GLEW-2.0.0\INCLUDE\GL" /I"E:\USERS\SKING14\FINAL\EDGE\EDGE\SDL2_IMAGE-2.0.1\INCLUDE" /I"E:\USERS\SKING14\FINAL\EDGE\EDGE\SDL2_MIXER-DEVEL-2.0.1-VC\SDL2_MIXER-2.0.1\INCLUDE" /I"E:\USERS\SKING14\FINAL\EDGE\EDGE\SDL2_TTF-DEVEL-2.0.14-VC\SDL2_TTF-2.0.14\INCLUDE" /I"E:\USERS\SKING14\FINAL\EDGE\EDGE\SDL2-2.0.5\INCLUDE" /I"C:\USERS\SHANE\DOCUMENTS\VISUAL STUDIO 2015\PROJECTS\EDGE\EDGE\SDL2_MIXER-DEVEL-2.0.1-VC\SDL2_MIXER-2.0.1\INCLUDE" /I"C:\USERS\SHANE\DOCUMENTS\VISUAL STUDIO 2015\PROJECTS\EDGE\EDGE\SDL2-2.0.5\INCLUDE" /I"C:\USERS\SHANE\DOCUMENTS\VISUAL STUDIO 2015\PROJECTS\EDGE\EDGE\SDL2_TTF-DEVEL-2.0.14-VC\SDL2_TTF-2.0.14\INCLUDE" /I"C:\USERS\SHANE\DOCUMENTS\VISUAL STUDIO 2015\PROJECTS\EDGE\EDGE\SDL2_IMAGE-2.0.1\INCLUDE" /I"C:\PROGRAM FILES (X86)\VISUAL LEAK DETECTOR\INCLUDE" /Zi /nologo /W3 /WX- /sdl /O2 /Oi /Oy- /GL /D WIN32 /D NDEBUG /D _CONSOLE /D _UNICODE /D UNICODE /Gm- /EHsc /MD /GS /Gy /fp:precise /Zc:wchar_t /Zc:forScope /Zc:inline /Fo"RELEASE\\" /Fd"RELEASE\VC140.PDB" /Gd /TP /analyze- C:\USERS\SHANE\DOCUMENTS\VISUAL STUDIO 2015\PROJECTS\EDGE\EDGE\GAMESTATEGAMEOVER.CPP
^C:\USERS\SHANE\DOCUMENTS\VISUAL STUDIO 2015\PROJECTS\EDGE\EDGE\GAMESTATEGL.CPP
/c /I"C:\USERS\SHANE\DOCUMENTS\VISUAL STUDIO 2015\PROJECTS\EDGE\EDGE\ASSIMP\INCLUDE" /I"C:\USERS\SHANE\DOCUMENTS\VISUAL STUDIO 2015\PROJECTS\EDGE\EDGE\SDL2-2.0.5\INCLUDE" /I"C:\USERS\SHANE\DOCUMENTS\VISUAL STUDIO 2015\PROJECTS\EDGE\EDGE\GLEW-2.0.0\INCLUDE" /I"C:\USERS\SHANE\DOCUMENTS\VISUAL STUDIO 2015\PROJECTS\EDGE\EDGE\GLM\TEST\EXTERNAL" /I"C:\USERS\SHANE\DOCUMENTS\VISUAL STUDIO 2015\PROJECTS\EDGE\EDGE\GLM" /I"C:\USERS\SHANE\DOCUMENTS\VISUAL STUDIO 2015\PROJECTS\EDGE\EDGE\GLM\GLM" /I"C:\USERS\SHANE\DOCUMENTS\VISUAL STUDIO 2015\PROJECTS\EDGE\EDGE\GLEW-2.0.0\INCLUDE" /I"C:\USERS\SHANE\DOCUMENTS\VISUAL STUDIO 2015\PROJECTS\EDGE\EDGE\GLEW-2.0.0\INCLUDE\GL" /I"E:\USERS\SKING14\FINAL\EDGE\EDGE\SDL2_IMAGE-2.0.1\INCLUDE" /I"E:\USERS\SKING14\FINAL\EDGE\EDGE\SDL2_MIXER-DEVEL-2.0.1-VC\SDL2_MIXER-2.0.1\INCLUDE" /I"E:\USERS\SKING14\FINAL\EDGE\EDGE\SDL2_TTF-DEVEL-2.0.14-VC\SDL2_TTF-2.0.14\INCLUDE" /I"E:\USERS\SKING14\FINAL\EDGE\EDGE\SDL2-2.0.5\INCLUDE" /I"C:\USERS\SHANE\DOCUMENTS\VISUAL STUDIO 2015\PROJECTS\EDGE\EDGE\SDL2_MIXER-DEVEL-2.0.1-VC\SDL2_MIXER-2.0.1\INCLUDE" /I"C:\USERS\SHANE\DOCUMENTS\VISUAL STUDIO 2015\PROJECTS\EDGE\EDGE\SDL2-2.0.5\INCLUDE" /I"C:\USERS\SHANE\DOCUMENTS\VISUAL STUDIO 2015\PROJECTS\EDGE\EDGE\SDL2_TTF-DEVEL-2.0.14-VC\SDL2_TTF-2.0.14\INCLUDE" /I"C:\USERS\SHANE\DOCUMENTS\VISUAL STUDIO 2015\PROJECTS\EDGE\EDGE\SDL2_IMAGE-2.0.1\INCLUDE" /I"C:\PROGRAM FILES (X86)\VISUAL LEAK DETECTOR\INCLUDE" /Zi /nologo /W3 /WX- /sdl /O2 /Oi /Oy- /GL /D WIN32 /D NDEBUG /D _CONSOLE /D _UNICODE /D UNICODE /Gm- /EHsc /MD /GS /Gy /fp:precise /Zc:wchar_t /Zc:forScope /Zc:inline /Fo"RELEASE\\" /Fd"RELEASE\VC140.PDB" /Gd /TP /analyze- C:\USERS\SHANE\DOCUMENTS\VISUAL STUDIO 2015\PROJECTS\EDGE\EDGE\GAMESTATEGL.CPP
^C:\USERS\SHANE\DOCUMENTS\VISUAL STUDIO 2015\PROJECTS\EDGE\EDGE\GAMESTATEMACHINE.CPP
/c /I"C:\USERS\SHANE\DOCUMENTS\VISUAL STUDIO 2015\PROJECTS\EDGE\EDGE\ASSIMP\INCLUDE" /I"C:\USERS\SHANE\DOCUMENTS\VISUAL STUDIO 2015\PROJECTS\EDGE\EDGE\SDL2-2.0.5\INCLUDE" /I"C:\USERS\SHANE\DOCUMENTS\VISUAL STUDIO 2015\PROJECTS\EDGE\EDGE\GLEW-2.0.0\INCLUDE" /I"C:\USERS\SHANE\DOCUMENTS\VISUAL STUDIO 2015\PROJECTS\EDGE\EDGE\GLM\TEST\EXTERNAL" /I"C:\USERS\SHANE\DOCUMENTS\VISUAL STUDIO 2015\PROJECTS\EDGE\EDGE\GLM" /I"C:\USERS\SHANE\DOCUMENTS\VISUAL STUDIO 2015\PROJECTS\EDGE\EDGE\GLM\GLM" /I"C:\USERS\SHANE\DOCUMENTS\VISUAL STUDIO 2015\PROJECTS\EDGE\EDGE\GLEW-2.0.0\INCLUDE" /I"C:\USERS\SHANE\DOCUMENTS\VISUAL STUDIO 2015\PROJECTS\EDGE\EDGE\GLEW-2.0.0\INCLUDE\GL" /I"E:\USERS\SKING14\FINAL\EDGE\EDGE\SDL2_IMAGE-2.0.1\INCLUDE" /I"E:\USERS\SKING14\FINAL\EDGE\EDGE\SDL2_MIXER-DEVEL-2.0.1-VC\SDL2_MIXER-2.0.1\INCLUDE" /I"E:\USERS\SKING14\FINAL\EDGE\EDGE\SDL2_TTF-DEVEL-2.0.14-VC\SDL2_TTF-2.0.14\INCLUDE" /I"E:\USERS\SKING14\FINAL\EDGE\EDGE\SDL2-2.0.5\INCLUDE" /I"C:\USERS\SHANE\DOCUMENTS\VISUAL STUDIO 2015\PROJECTS\EDGE\EDGE\SDL2_MIXER-DEVEL-2.0.1-VC\SDL2_MIXER-2.0.1\INCLUDE" /I"C:\USERS\SHANE\DOCUMENTS\VISUAL STUDIO 2015\PROJECTS\EDGE\EDGE\SDL2-2.0.5\INCLUDE" /I"C:\USERS\SHANE\DOCUMENTS\VISUAL STUDIO 2015\PROJECTS\EDGE\EDGE\SDL2_TTF-DEVEL-2.0.14-VC\SDL2_TTF-2.0.14\INCLUDE" /I"C:\USERS\SHANE\DOCUMENTS\VISUAL STUDIO 2015\PROJECTS\EDGE\EDGE\SDL2_IMAGE-2.0.1\INCLUDE" /I"C:\PROGRAM FILES (X86)\VISUAL LEAK DETECTOR\INCLUDE" /Zi /nologo /W3 /WX- /sdl /O2 /Oi /Oy- /GL /D WIN32 /D NDEBUG /D _CONSOLE /D _UNICODE /D UNICODE /Gm- /EHsc /MD /GS /Gy /fp:precise /Zc:wchar_t /Zc:forScope /Zc:inline /Fo"RELEASE\\" /Fd"RELEASE\VC140.PDB" /Gd /TP /analyze- C:\USERS\SHANE\DOCUMENTS\VISUAL STUDIO 2015\PROJECTS\EDGE\EDGE\GAMESTATEMACHINE.CPP
^C:\USERS\SHANE\DOCUMENTS\VISUAL STUDIO 2015\PROJECTS\EDGE\EDGE\GAMESTATEMENU.CPP
/c /I"C:\USERS\SHANE\DOCUMENTS\VISUAL STUDIO 2015\PROJECTS\EDGE\EDGE\ASSIMP\INCLUDE" /I"C:\USERS\SHANE\DOCUMENTS\VISUAL STUDIO 2015\PROJECTS\EDGE\EDGE\SDL2-2.0.5\INCLUDE" /I"C:\USERS\SHANE\DOCUMENTS\VISUAL STUDIO 2015\PROJECTS\EDGE\EDGE\GLEW-2.0.0\INCLUDE" /I"C:\USERS\SHANE\DOCUMENTS\VISUAL STUDIO 2015\PROJECTS\EDGE\EDGE\GLM\TEST\EXTERNAL" /I"C:\USERS\SHANE\DOCUMENTS\VISUAL STUDIO 2015\PROJECTS\EDGE\EDGE\GLM" /I"C:\USERS\SHANE\DOCUMENTS\VISUAL STUDIO 2015\PROJECTS\EDGE\EDGE\GLM\GLM" /I"C:\USERS\SHANE\DOCUMENTS\VISUAL STUDIO 2015\PROJECTS\EDGE\EDGE\GLEW-2.0.0\INCLUDE" /I"C:\USERS\SHANE\DOCUMENTS\VISUAL STUDIO 2015\PROJECTS\EDGE\EDGE\GLEW-2.0.0\INCLUDE\GL" /I"E:\USERS\SKING14\FINAL\EDGE\EDGE\SDL2_IMAGE-2.0.1\INCLUDE" /I"E:\USERS\SKING14\FINAL\EDGE\EDGE\SDL2_MIXER-DEVEL-2.0.1-VC\SDL2_MIXER-2.0.1\INCLUDE" /I"E:\USERS\SKING14\FINAL\EDGE\EDGE\SDL2_TTF-DEVEL-2.0.14-VC\SDL2_TTF-2.0.14\INCLUDE" /I"E:\USERS\SKING14\FINAL\EDGE\EDGE\SDL2-2.0.5\INCLUDE" /I"C:\USERS\SHANE\DOCUMENTS\VISUAL STUDIO 2015\PROJECTS\EDGE\EDGE\SDL2_MIXER-DEVEL-2.0.1-VC\SDL2_MIXER-2.0.1\INCLUDE" /I"C:\USERS\SHANE\DOCUMENTS\VISUAL STUDIO 2015\PROJECTS\EDGE\EDGE\SDL2-2.0.5\INCLUDE" /I"C:\USERS\SHANE\DOCUMENTS\VISUAL STUDIO 2015\PROJECTS\EDGE\EDGE\SDL2_TTF-DEVEL-2.0.14-VC\SDL2_TTF-2.0.14\INCLUDE" /I"C:\USERS\SHANE\DOCUMENTS\VISUAL STUDIO 2015\PROJECTS\EDGE\EDGE\SDL2_IMAGE-2.0.1\INCLUDE" /I"C:\PROGRAM FILES (X86)\VISUAL LEAK DETECTOR\INCLUDE" /Zi /nologo /W3 /WX- /sdl /O2 /Oi /Oy- /GL /D WIN32 /D NDEBUG /D _CONSOLE /D _UNICODE /D UNICODE /Gm- /EHsc /MD /GS /Gy /fp:precise /Zc:wchar_t /Zc:forScope /Zc:inline /Fo"RELEASE\\" /Fd"RELEASE\VC140.PDB" /Gd /TP /analyze- C:\USERS\SHANE\DOCUMENTS\VISUAL STUDIO 2015\PROJECTS\EDGE\EDGE\GAMESTATEMENU.CPP
^C:\USERS\SHANE\DOCUMENTS\VISUAL STUDIO 2015\PROJECTS\EDGE\EDGE\GAMESTATEPLAY.CPP
/c /I"C:\USERS\SHANE\DOCUMENTS\VISUAL STUDIO 2015\PROJECTS\EDGE\EDGE\ASSIMP\INCLUDE" /I"C:\USERS\SHANE\DOCUMENTS\VISUAL STUDIO 2015\PROJECTS\EDGE\EDGE\SDL2-2.0.5\INCLUDE" /I"C:\USERS\SHANE\DOCUMENTS\VISUAL STUDIO 2015\PROJECTS\EDGE\EDGE\GLEW-2.0.0\INCLUDE" /I"C:\USERS\SHANE\DOCUMENTS\VISUAL STUDIO 2015\PROJECTS\EDGE\EDGE\GLM\TEST\EXTERNAL" /I"C:\USERS\SHANE\DOCUMENTS\VISUAL STUDIO 2015\PROJECTS\EDGE\EDGE\GLM" /I"C:\USERS\SHANE\DOCUMENTS\VISUAL STUDIO 2015\PROJECTS\EDGE\EDGE\GLM\GLM" /I"C:\USERS\SHANE\DOCUMENTS\VISUAL STUDIO 2015\PROJECTS\EDGE\EDGE\GLEW-2.0.0\INCLUDE" /I"C:\USERS\SHANE\DOCUMENTS\VISUAL STUDIO 2015\PROJECTS\EDGE\EDGE\GLEW-2.0.0\INCLUDE\GL" /I"E:\USERS\SKING14\FINAL\EDGE\EDGE\SDL2_IMAGE-2.0.1\INCLUDE" /I"E:\USERS\SKING14\FINAL\EDGE\EDGE\SDL2_MIXER-DEVEL-2.0.1-VC\SDL2_MIXER-2.0.1\INCLUDE" /I"E:\USERS\SKING14\FINAL\EDGE\EDGE\SDL2_TTF-DEVEL-2.0.14-VC\SDL2_TTF-2.0.14\INCLUDE" /I"E:\USERS\SKING14\FINAL\EDGE\EDGE\SDL2-2.0.5\INCLUDE" /I"C:\USERS\SHANE\DOCUMENTS\VISUAL STUDIO 2015\PROJECTS\EDGE\EDGE\SDL2_MIXER-DEVEL-2.0.1-VC\SDL2_MIXER-2.0.1\INCLUDE" /I"C:\USERS\SHANE\DOCUMENTS\VISUAL STUDIO 2015\PROJECTS\EDGE\EDGE\SDL2-2.0.5\INCLUDE" /I"C:\USERS\SHANE\DOCUMENTS\VISUAL STUDIO 2015\PROJECTS\EDGE\EDGE\SDL2_TTF-DEVEL-2.0.14-VC\SDL2_TTF-2.0.14\INCLUDE" /I"C:\USERS\SHANE\DOCUMENTS\VISUAL STUDIO 2015\PROJECTS\EDGE\EDGE\SDL2_IMAGE-2.0.1\INCLUDE" /I"C:\PROGRAM FILES (X86)\VISUAL LEAK DETECTOR\INCLUDE" /Zi /nologo /W3 /WX- /sdl /O2 /Oi /Oy- /GL /D WIN32 /D NDEBUG /D _CONSOLE /D _UNICODE /D UNICODE /Gm- /EHsc /MD /GS /Gy /fp:precise /Zc:wchar_t /Zc:forScope /Zc:inline /Fo"RELEASE\\" /Fd"RELEASE\VC140.PDB" /Gd /TP /analyze- C:\USERS\SHANE\DOCUMENTS\VISUAL STUDIO 2015\PROJECTS\EDGE\EDGE\GAMESTATEPLAY.CPP
^C:\USERS\SHANE\DOCUMENTS\VISUAL STUDIO 2015\PROJECTS\EDGE\EDGE\GLRENDERER.CPP
/c /I"C:\USERS\SHANE\DOCUMENTS\VISUAL STUDIO 2015\PROJECTS\EDGE\EDGE\ASSIMP\INCLUDE" /I"C:\USERS\SHANE\DOCUMENTS\VISUAL STUDIO 2015\PROJECTS\EDGE\EDGE\SDL2-2.0.5\INCLUDE" /I"C:\USERS\SHANE\DOCUMENTS\VISUAL STUDIO 2015\PROJECTS\EDGE\EDGE\GLEW-2.0.0\INCLUDE" /I"C:\USERS\SHANE\DOCUMENTS\VISUAL STUDIO 2015\PROJECTS\EDGE\EDGE\GLM\TEST\EXTERNAL" /I"C:\USERS\SHANE\DOCUMENTS\VISUAL STUDIO 2015\PROJECTS\EDGE\EDGE\GLM" /I"C:\USERS\SHANE\DOCUMENTS\VISUAL STUDIO 2015\PROJECTS\EDGE\EDGE\GLM\GLM" /I"C:\USERS\SHANE\DOCUMENTS\VISUAL STUDIO 2015\PROJECTS\EDGE\EDGE\GLEW-2.0.0\INCLUDE" /I"C:\USERS\SHANE\DOCUMENTS\VISUAL STUDIO 2015\PROJECTS\EDGE\EDGE\GLEW-2.0.0\INCLUDE\GL" /I"E:\USERS\SKING14\FINAL\EDGE\EDGE\SDL2_IMAGE-2.0.1\INCLUDE" /I"E:\USERS\SKING14\FINAL\EDGE\EDGE\SDL2_MIXER-DEVEL-2.0.1-VC\SDL2_MIXER-2.0.1\INCLUDE" /I"E:\USERS\SKING14\FINAL\EDGE\EDGE\SDL2_TTF-DEVEL-2.0.14-VC\SDL2_TTF-2.0.14\INCLUDE" /I"E:\USERS\SKING14\FINAL\EDGE\EDGE\SDL2-2.0.5\INCLUDE" /I"C:\USERS\SHANE\DOCUMENTS\VISUAL STUDIO 2015\PROJECTS\EDGE\EDGE\SDL2_MIXER-DEVEL-2.0.1-VC\SDL2_MIXER-2.0.1\INCLUDE" /I"C:\USERS\SHANE\DOCUMENTS\VISUAL STUDIO 2015\PROJECTS\EDGE\EDGE\SDL2-2.0.5\INCLUDE" /I"C:\USERS\SHANE\DOCUMENTS\VISUAL STUDIO 2015\PROJECTS\EDGE\EDGE\SDL2_TTF-DEVEL-2.0.14-VC\SDL2_TTF-2.0.14\INCLUDE" /I"C:\USERS\SHANE\DOCUMENTS\VISUAL STUDIO 2015\PROJECTS\EDGE\EDGE\SDL2_IMAGE-2.0.1\INCLUDE" /I"C:\PROGRAM FILES (X86)\VISUAL LEAK DETECTOR\INCLUDE" /Zi /nologo /W3 /WX- /sdl /O2 /Oi /Oy- /GL /D WIN32 /D NDEBUG /D _CONSOLE /D _UNICODE /D UNICODE /Gm- /EHsc /MD /GS /Gy /fp:precise /Zc:wchar_t /Zc:forScope /Zc:inline /Fo"RELEASE\\" /Fd"RELEASE\VC140.PDB" /Gd /TP /analyze- C:\USERS\SHANE\DOCUMENTS\VISUAL STUDIO 2015\PROJECTS\EDGE\EDGE\GLRENDERER.CPP
^C:\USERS\SHANE\DOCUMENTS\VISUAL STUDIO 2015\PROJECTS\EDGE\EDGE\MASTERSYSTEM.CPP
/c /I"C:\USERS\SHANE\DOCUMENTS\VISUAL STUDIO 2015\PROJECTS\EDGE\EDGE\ASSIMP\INCLUDE" /I"C:\USERS\SHANE\DOCUMENTS\VISUAL STUDIO 2015\PROJECTS\EDGE\EDGE\SDL2-2.0.5\INCLUDE" /I"C:\USERS\SHANE\DOCUMENTS\VISUAL STUDIO 2015\PROJECTS\EDGE\EDGE\GLEW-2.0.0\INCLUDE" /I"C:\USERS\SHANE\DOCUMENTS\VISUAL STUDIO 2015\PROJECTS\EDGE\EDGE\GLM\TEST\EXTERNAL" /I"C:\USERS\SHANE\DOCUMENTS\VISUAL STUDIO 2015\PROJECTS\EDGE\EDGE\GLM" /I"C:\USERS\SHANE\DOCUMENTS\VISUAL STUDIO 2015\PROJECTS\EDGE\EDGE\GLM\GLM" /I"C:\USERS\SHANE\DOCUMENTS\VISUAL STUDIO 2015\PROJECTS\EDGE\EDGE\GLEW-2.0.0\INCLUDE" /I"C:\USERS\SHANE\DOCUMENTS\VISUAL STUDIO 2015\PROJECTS\EDGE\EDGE\GLEW-2.0.0\INCLUDE\GL" /I"E:\USERS\SKING14\FINAL\EDGE\EDGE\SDL2_IMAGE-2.0.1\INCLUDE" /I"E:\USERS\SKING14\FINAL\EDGE\EDGE\SDL2_MIXER-DEVEL-2.0.1-VC\SDL2_MIXER-2.0.1\INCLUDE" /I"E:\USERS\SKING14\FINAL\EDGE\EDGE\SDL2_TTF-DEVEL-2.0.14-VC\SDL2_TTF-2.0.14\INCLUDE" /I"E:\USERS\SKING14\FINAL\EDGE\EDGE\SDL2-2.0.5\INCLUDE" /I"C:\USERS\SHANE\DOCUMENTS\VISUAL STUDIO 2015\PROJECTS\EDGE\EDGE\SDL2_MIXER-DEVEL-2.0.1-VC\SDL2_MIXER-2.0.1\INCLUDE" /I"C:\USERS\SHANE\DOCUMENTS\VISUAL STUDIO 2015\PROJECTS\EDGE\EDGE\SDL2-2.0.5\INCLUDE" /I"C:\USERS\SHANE\DOCUMENTS\VISUAL STUDIO 2015\PROJECTS\EDGE\EDGE\SDL2_TTF-DEVEL-2.0.14-VC\SDL2_TTF-2.0.14\INCLUDE" /I"C:\USERS\SHANE\DOCUMENTS\VISUAL STUDIO 2015\PROJECTS\EDGE\EDGE\SDL2_IMAGE-2.0.1\INCLUDE" /I"C:\PROGRAM FILES (X86)\VISUAL LEAK DETECTOR\INCLUDE" /Zi /nologo /W3 /WX- /sdl /O2 /Oi /Oy- /GL /D WIN32 /D NDEBUG /D _CONSOLE /D _UNICODE /D UNICODE /Gm- /EHsc /MD /GS /Gy /fp:precise /Zc:wchar_t /Zc:forScope /Zc:inline /Fo"RELEASE\\" /Fd"RELEASE\VC140.PDB" /Gd /TP /analyze- C:\USERS\SHANE\DOCUMENTS\VISUAL STUDIO 2015\PROJECTS\EDGE\EDGE\MASTERSYSTEM.CPP
^C:\USERS\SHANE\DOCUMENTS\VISUAL STUDIO 2015\PROJECTS\EDGE\EDGE\MENUCONTROLLER.CPP
/c /I"C:\USERS\SHANE\DOCUMENTS\VISUAL STUDIO 2015\PROJECTS\EDGE\EDGE\ASSIMP\INCLUDE" /I"C:\USERS\SHANE\DOCUMENTS\VISUAL STUDIO 2015\PROJECTS\EDGE\EDGE\SDL2-2.0.5\INCLUDE" /I"C:\USERS\SHANE\DOCUMENTS\VISUAL STUDIO 2015\PROJECTS\EDGE\EDGE\GLEW-2.0.0\INCLUDE" /I"C:\USERS\SHANE\DOCUMENTS\VISUAL STUDIO 2015\PROJECTS\EDGE\EDGE\GLM\TEST\EXTERNAL" /I"C:\USERS\SHANE\DOCUMENTS\VISUAL STUDIO 2015\PROJECTS\EDGE\EDGE\GLM" /I"C:\USERS\SHANE\DOCUMENTS\VISUAL STUDIO 2015\PROJECTS\EDGE\EDGE\GLM\GLM" /I"C:\USERS\SHANE\DOCUMENTS\VISUAL STUDIO 2015\PROJECTS\EDGE\EDGE\GLEW-2.0.0\INCLUDE" /I"C:\USERS\SHANE\DOCUMENTS\VISUAL STUDIO 2015\PROJECTS\EDGE\EDGE\GLEW-2.0.0\INCLUDE\GL" /I"E:\USERS\SKING14\FINAL\EDGE\EDGE\SDL2_IMAGE-2.0.1\INCLUDE" /I"E:\USERS\SKING14\FINAL\EDGE\EDGE\SDL2_MIXER-DEVEL-2.0.1-VC\SDL2_MIXER-2.0.1\INCLUDE" /I"E:\USERS\SKING14\FINAL\EDGE\EDGE\SDL2_TTF-DEVEL-2.0.14-VC\SDL2_TTF-2.0.14\INCLUDE" /I"E:\USERS\SKING14\FINAL\EDGE\EDGE\SDL2-2.0.5\INCLUDE" /I"C:\USERS\SHANE\DOCUMENTS\VISUAL STUDIO 2015\PROJECTS\EDGE\EDGE\SDL2_MIXER-DEVEL-2.0.1-VC\SDL2_MIXER-2.0.1\INCLUDE" /I"C:\USERS\SHANE\DOCUMENTS\VISUAL STUDIO 2015\PROJECTS\EDGE\EDGE\SDL2-2.0.5\INCLUDE" /I"C:\USERS\SHANE\DOCUMENTS\VISUAL STUDIO 2015\PROJECTS\EDGE\EDGE\SDL2_TTF-DEVEL-2.0.14-VC\SDL2_TTF-2.0.14\INCLUDE" /I"C:\USERS\SHANE\DOCUMENTS\VISUAL STUDIO 2015\PROJECTS\EDGE\EDGE\SDL2_IMAGE-2.0.1\INCLUDE" /I"C:\PROGRAM FILES (X86)\VISUAL LEAK DETECTOR\INCLUDE" /Zi /nologo /W3 /WX- /sdl /O2 /Oi /Oy- /GL /D WIN32 /D NDEBUG /D _CONSOLE /D _UNICODE /D UNICODE /Gm- /EHsc /MD /GS /Gy /fp:precise /Zc:wchar_t /Zc:forScope /Zc:inline /Fo"RELEASE\\" /Fd"RELEASE\VC140.PDB" /Gd /TP /analyze- C:\USERS\SHANE\DOCUMENTS\VISUAL STUDIO 2015\PROJECTS\EDGE\EDGE\MENUCONTROLLER.CPP
^C:\USERS\SHANE\DOCUMENTS\VISUAL STUDIO 2015\PROJECTS\EDGE\EDGE\MESH.CPP
/c /I"C:\USERS\SHANE\DOCUMENTS\VISUAL STUDIO 2015\PROJECTS\EDGE\EDGE\ASSIMP\INCLUDE" /I"C:\USERS\SHANE\DOCUMENTS\VISUAL STUDIO 2015\PROJECTS\EDGE\EDGE\SDL2-2.0.5\INCLUDE" /I"C:\USERS\SHANE\DOCUMENTS\VISUAL STUDIO 2015\PROJECTS\EDGE\EDGE\GLEW-2.0.0\INCLUDE" /I"C:\USERS\SHANE\DOCUMENTS\VISUAL STUDIO 2015\PROJECTS\EDGE\EDGE\GLM\TEST\EXTERNAL" /I"C:\USERS\SHANE\DOCUMENTS\VISUAL STUDIO 2015\PROJECTS\EDGE\EDGE\GLM" /I"C:\USERS\SHANE\DOCUMENTS\VISUAL STUDIO 2015\PROJECTS\EDGE\EDGE\GLM\GLM" /I"C:\USERS\SHANE\DOCUMENTS\VISUAL STUDIO 2015\PROJECTS\EDGE\EDGE\GLEW-2.0.0\INCLUDE" /I"C:\USERS\SHANE\DOCUMENTS\VISUAL STUDIO 2015\PROJECTS\EDGE\EDGE\GLEW-2.0.0\INCLUDE\GL" /I"E:\USERS\SKING14\FINAL\EDGE\EDGE\SDL2_IMAGE-2.0.1\INCLUDE" /I"E:\USERS\SKING14\FINAL\EDGE\EDGE\SDL2_MIXER-DEVEL-2.0.1-VC\SDL2_MIXER-2.0.1\INCLUDE" /I"E:\USERS\SKING14\FINAL\EDGE\EDGE\SDL2_TTF-DEVEL-2.0.14-VC\SDL2_TTF-2.0.14\INCLUDE" /I"E:\USERS\SKING14\FINAL\EDGE\EDGE\SDL2-2.0.5\INCLUDE" /I"C:\USERS\SHANE\DOCUMENTS\VISUAL STUDIO 2015\PROJECTS\EDGE\EDGE\SDL2_MIXER-DEVEL-2.0.1-VC\SDL2_MIXER-2.0.1\INCLUDE" /I"C:\USERS\SHANE\DOCUMENTS\VISUAL STUDIO 2015\PROJECTS\EDGE\EDGE\SDL2-2.0.5\INCLUDE" /I"C:\USERS\SHANE\DOCUMENTS\VISUAL STUDIO 2015\PROJECTS\EDGE\EDGE\SDL2_TTF-DEVEL-2.0.14-VC\SDL2_TTF-2.0.14\INCLUDE" /I"C:\USERS\SHANE\DOCUMENTS\VISUAL STUDIO 2015\PROJECTS\EDGE\EDGE\SDL2_IMAGE-2.0.1\INCLUDE" /I"C:\PROGRAM FILES (X86)\VISUAL LEAK DETECTOR\INCLUDE" /Zi /nologo /W3 /WX- /sdl /O2 /Oi /Oy- /GL /D WIN32 /D NDEBUG /D _CONSOLE /D _UNICODE /D UNICODE /Gm- /EHsc /MD /GS /Gy /fp:precise /Zc:wchar_t /Zc:forScope /Zc:inline /Fo"RELEASE\\" /Fd"RELEASE\VC140.PDB" /Gd /TP /analyze- C:\USERS\SHANE\DOCUMENTS\VISUAL STUDIO 2015\PROJECTS\EDGE\EDGE\MESH.CPP
^C:\USERS\SHANE\DOCUMENTS\VISUAL STUDIO 2015\PROJECTS\EDGE\EDGE\OBJLOADER.CPP
/c /I"C:\USERS\SHANE\DOCUMENTS\VISUAL STUDIO 2015\PROJECTS\EDGE\EDGE\ASSIMP\INCLUDE" /I"C:\USERS\SHANE\DOCUMENTS\VISUAL STUDIO 2015\PROJECTS\EDGE\EDGE\SDL2-2.0.5\INCLUDE" /I"C:\USERS\SHANE\DOCUMENTS\VISUAL STUDIO 2015\PROJECTS\EDGE\EDGE\GLEW-2.0.0\INCLUDE" /I"C:\USERS\SHANE\DOCUMENTS\VISUAL STUDIO 2015\PROJECTS\EDGE\EDGE\GLM\TEST\EXTERNAL" /I"C:\USERS\SHANE\DOCUMENTS\VISUAL STUDIO 2015\PROJECTS\EDGE\EDGE\GLM" /I"C:\USERS\SHANE\DOCUMENTS\VISUAL STUDIO 2015\PROJECTS\EDGE\EDGE\GLM\GLM" /I"C:\USERS\SHANE\DOCUMENTS\VISUAL STUDIO 2015\PROJECTS\EDGE\EDGE\GLEW-2.0.0\INCLUDE" /I"C:\USERS\SHANE\DOCUMENTS\VISUAL STUDIO 2015\PROJECTS\EDGE\EDGE\GLEW-2.0.0\INCLUDE\GL" /I"E:\USERS\SKING14\FINAL\EDGE\EDGE\SDL2_IMAGE-2.0.1\INCLUDE" /I"E:\USERS\SKING14\FINAL\EDGE\EDGE\SDL2_MIXER-DEVEL-2.0.1-VC\SDL2_MIXER-2.0.1\INCLUDE" /I"E:\USERS\SKING14\FINAL\EDGE\EDGE\SDL2_TTF-DEVEL-2.0.14-VC\SDL2_TTF-2.0.14\INCLUDE" /I"E:\USERS\SKING14\FINAL\EDGE\EDGE\SDL2-2.0.5\INCLUDE" /I"C:\USERS\SHANE\DOCUMENTS\VISUAL STUDIO 2015\PROJECTS\EDGE\EDGE\SDL2_MIXER-DEVEL-2.0.1-VC\SDL2_MIXER-2.0.1\INCLUDE" /I"C:\USERS\SHANE\DOCUMENTS\VISUAL STUDIO 2015\PROJECTS\EDGE\EDGE\SDL2-2.0.5\INCLUDE" /I"C:\USERS\SHANE\DOCUMENTS\VISUAL STUDIO 2015\PROJECTS\EDGE\EDGE\SDL2_TTF-DEVEL-2.0.14-VC\SDL2_TTF-2.0.14\INCLUDE" /I"C:\USERS\SHANE\DOCUMENTS\VISUAL STUDIO 2015\PROJECTS\EDGE\EDGE\SDL2_IMAGE-2.0.1\INCLUDE" /I"C:\PROGRAM FILES (X86)\VISUAL LEAK DETECTOR\INCLUDE" /Zi /nologo /W3 /WX- /sdl /O2 /Oi /Oy- /GL /D WIN32 /D NDEBUG /D _CONSOLE /D _UNICODE /D UNICODE /Gm- /EHsc /MD /GS /Gy /fp:precise /Zc:wchar_t /Zc:forScope /Zc:inline /Fo"RELEASE\\" /Fd"RELEASE\VC140.PDB" /Gd /TP /analyze- C:\USERS\SHANE\DOCUMENTS\VISUAL STUDIO 2015\PROJECTS\EDGE\EDGE\OBJLOADER.CPP
^C:\USERS\SHANE\DOCUMENTS\VISUAL STUDIO 2015\PROJECTS\EDGE\EDGE\PLAYERMODEL.CPP
/c /I"C:\USERS\SHANE\DOCUMENTS\VISUAL STUDIO 2015\PROJECTS\EDGE\EDGE\ASSIMP\INCLUDE" /I"C:\USERS\SHANE\DOCUMENTS\VISUAL STUDIO 2015\PROJECTS\EDGE\EDGE\SDL2-2.0.5\INCLUDE" /I"C:\USERS\SHANE\DOCUMENTS\VISUAL STUDIO 2015\PROJECTS\EDGE\EDGE\GLEW-2.0.0\INCLUDE" /I"C:\USERS\SHANE\DOCUMENTS\VISUAL STUDIO 2015\PROJECTS\EDGE\EDGE\GLM\TEST\EXTERNAL" /I"C:\USERS\SHANE\DOCUMENTS\VISUAL STUDIO 2015\PROJECTS\EDGE\EDGE\GLM" /I"C:\USERS\SHANE\DOCUMENTS\VISUAL STUDIO 2015\PROJECTS\EDGE\EDGE\GLM\GLM" /I"C:\USERS\SHANE\DOCUMENTS\VISUAL STUDIO 2015\PROJECTS\EDGE\EDGE\GLEW-2.0.0\INCLUDE" /I"C:\USERS\SHANE\DOCUMENTS\VISUAL STUDIO 2015\PROJECTS\EDGE\EDGE\GLEW-2.0.0\INCLUDE\GL" /I"E:\USERS\SKING14\FINAL\EDGE\EDGE\SDL2_IMAGE-2.0.1\INCLUDE" /I"E:\USERS\SKING14\FINAL\EDGE\EDGE\SDL2_MIXER-DEVEL-2.0.1-VC\SDL2_MIXER-2.0.1\INCLUDE" /I"E:\USERS\SKING14\FINAL\EDGE\EDGE\SDL2_TTF-DEVEL-2.0.14-VC\SDL2_TTF-2.0.14\INCLUDE" /I"E:\USERS\SKING14\FINAL\EDGE\EDGE\SDL2-2.0.5\INCLUDE" /I"C:\USERS\SHANE\DOCUMENTS\VISUAL STUDIO 2015\PROJECTS\EDGE\EDGE\SDL2_MIXER-DEVEL-2.0.1-VC\SDL2_MIXER-2.0.1\INCLUDE" /I"C:\USERS\SHANE\DOCUMENTS\VISUAL STUDIO 2015\PROJECTS\EDGE\EDGE\SDL2-2.0.5\INCLUDE" /I"C:\USERS\SHANE\DOCUMENTS\VISUAL STUDIO 2015\PROJECTS\EDGE\EDGE\SDL2_TTF-DEVEL-2.0.14-VC\SDL2_TTF-2.0.14\INCLUDE" /I"C:\USERS\SHANE\DOCUMENTS\VISUAL STUDIO 2015\PROJECTS\EDGE\EDGE\SDL2_IMAGE-2.0.1\INCLUDE" /I"C:\PROGRAM FILES (X86)\VISUAL LEAK DETECTOR\INCLUDE" /Zi /nologo /W3 /WX- /sdl /O2 /Oi /Oy- /GL /D WIN32 /D NDEBUG /D _CONSOLE /D _UNICODE /D UNICODE /Gm- /EHsc /MD /GS /Gy /fp:precise /Zc:wchar_t /Zc:forScope /Zc:inline /Fo"RELEASE\\" /Fd"RELEASE\VC140.PDB" /Gd /TP /analyze- C:\USERS\SHANE\DOCUMENTS\VISUAL STUDIO 2015\PROJECTS\EDGE\EDGE\PLAYERMODEL.CPP
^C:\USERS\SHANE\DOCUMENTS\VISUAL STUDIO 2015\PROJECTS\EDGE\EDGE\PLAYERCONTROLLER.CPP
/c /I"C:\USERS\SHANE\DOCUMENTS\VISUAL STUDIO 2015\PROJECTS\EDGE\EDGE\ASSIMP\INCLUDE" /I"C:\USERS\SHANE\DOCUMENTS\VISUAL STUDIO 2015\PROJECTS\EDGE\EDGE\SDL2-2.0.5\INCLUDE" /I"C:\USERS\SHANE\DOCUMENTS\VISUAL STUDIO 2015\PROJECTS\EDGE\EDGE\GLEW-2.0.0\INCLUDE" /I"C:\USERS\SHANE\DOCUMENTS\VISUAL STUDIO 2015\PROJECTS\EDGE\EDGE\GLM\TEST\EXTERNAL" /I"C:\USERS\SHANE\DOCUMENTS\VISUAL STUDIO 2015\PROJECTS\EDGE\EDGE\GLM" /I"C:\USERS\SHANE\DOCUMENTS\VISUAL STUDIO 2015\PROJECTS\EDGE\EDGE\GLM\GLM" /I"C:\USERS\SHANE\DOCUMENTS\VISUAL STUDIO 2015\PROJECTS\EDGE\EDGE\GLEW-2.0.0\INCLUDE" /I"C:\USERS\SHANE\DOCUMENTS\VISUAL STUDIO 2015\PROJECTS\EDGE\EDGE\GLEW-2.0.0\INCLUDE\GL" /I"E:\USERS\SKING14\FINAL\EDGE\EDGE\SDL2_IMAGE-2.0.1\INCLUDE" /I"E:\USERS\SKING14\FINAL\EDGE\EDGE\SDL2_MIXER-DEVEL-2.0.1-VC\SDL2_MIXER-2.0.1\INCLUDE" /I"E:\USERS\SKING14\FINAL\EDGE\EDGE\SDL2_TTF-DEVEL-2.0.14-VC\SDL2_TTF-2.0.14\INCLUDE" /I"E:\USERS\SKING14\FINAL\EDGE\EDGE\SDL2-2.0.5\INCLUDE" /I"C:\USERS\SHANE\DOCUMENTS\VISUAL STUDIO 2015\PROJECTS\EDGE\EDGE\SDL2_MIXER-DEVEL-2.0.1-VC\SDL2_MIXER-2.0.1\INCLUDE" /I"C:\USERS\SHANE\DOCUMENTS\VISUAL STUDIO 2015\PROJECTS\EDGE\EDGE\SDL2-2.0.5\INCLUDE" /I"C:\USERS\SHANE\DOCUMENTS\VISUAL STUDIO 2015\PROJECTS\EDGE\EDGE\SDL2_TTF-DEVEL-2.0.14-VC\SDL2_TTF-2.0.14\INCLUDE" /I"C:\USERS\SHANE\DOCUMENTS\VISUAL STUDIO 2015\PROJECTS\EDGE\EDGE\SDL2_IMAGE-2.0.1\INCLUDE" /I"C:\PROGRAM FILES (X86)\VISUAL LEAK DETECTOR\INCLUDE" /Zi /nologo /W3 /WX- /sdl /O2 /Oi /Oy- /GL /D WIN32 /D NDEBUG /D _CONSOLE /D _UNICODE /D UNICODE /Gm- /EHsc /MD /GS /Gy /fp:precise /Zc:wchar_t /Zc:forScope /Zc:inline /Fo"RELEASE\\" /Fd"RELEASE\VC140.PDB" /Gd /TP /analyze- C:\USERS\SHANE\DOCUMENTS\VISUAL STUDIO 2015\PROJECTS\EDGE\EDGE\PLAYERCONTROLLER.CPP
^C:\USERS\SHANE\DOCUMENTS\VISUAL STUDIO 2015\PROJECTS\EDGE\EDGE\PLAYERSROOMCONTROLLER.CPP
/c /I"C:\USERS\SHANE\DOCUMENTS\VISUAL STUDIO 2015\PROJECTS\EDGE\EDGE\ASSIMP\INCLUDE" /I"C:\USERS\SHANE\DOCUMENTS\VISUAL STUDIO 2015\PROJECTS\EDGE\EDGE\SDL2-2.0.5\INCLUDE" /I"C:\USERS\SHANE\DOCUMENTS\VISUAL STUDIO 2015\PROJECTS\EDGE\EDGE\GLEW-2.0.0\INCLUDE" /I"C:\USERS\SHANE\DOCUMENTS\VISUAL STUDIO 2015\PROJECTS\EDGE\EDGE\GLM\TEST\EXTERNAL" /I"C:\USERS\SHANE\DOCUMENTS\VISUAL STUDIO 2015\PROJECTS\EDGE\EDGE\GLM" /I"C:\USERS\SHANE\DOCUMENTS\VISUAL STUDIO 2015\PROJECTS\EDGE\EDGE\GLM\GLM" /I"C:\USERS\SHANE\DOCUMENTS\VISUAL STUDIO 2015\PROJECTS\EDGE\EDGE\GLEW-2.0.0\INCLUDE" /I"C:\USERS\SHANE\DOCUMENTS\VISUAL STUDIO 2015\PROJECTS\EDGE\EDGE\GLEW-2.0.0\INCLUDE\GL" /I"E:\USERS\SKING14\FINAL\EDGE\EDGE\SDL2_IMAGE-2.0.1\INCLUDE" /I"E:\USERS\SKING14\FINAL\EDGE\EDGE\SDL2_MIXER-DEVEL-2.0.1-VC\SDL2_MIXER-2.0.1\INCLUDE" /I"E:\USERS\SKING14\FINAL\EDGE\EDGE\SDL2_TTF-DEVEL-2.0.14-VC\SDL2_TTF-2.0.14\INCLUDE" /I"E:\USERS\SKING14\FINAL\EDGE\EDGE\SDL2-2.0.5\INCLUDE" /I"C:\USERS\SHANE\DOCUMENTS\VISUAL STUDIO 2015\PROJECTS\EDGE\EDGE\SDL2_MIXER-DEVEL-2.0.1-VC\SDL2_MIXER-2.0.1\INCLUDE" /I"C:\USERS\SHANE\DOCUMENTS\VISUAL STUDIO 2015\PROJECTS\EDGE\EDGE\SDL2-2.0.5\INCLUDE" /I"C:\USERS\SHANE\DOCUMENTS\VISUAL STUDIO 2015\PROJECTS\EDGE\EDGE\SDL2_TTF-DEVEL-2.0.14-VC\SDL2_TTF-2.0.14\INCLUDE" /I"C:\USERS\SHANE\DOCUMENTS\VISUAL STUDIO 2015\PROJECTS\EDGE\EDGE\SDL2_IMAGE-2.0.1\INCLUDE" /I"C:\PROGRAM FILES (X86)\VISUAL LEAK DETECTOR\INCLUDE" /Zi /nologo /W3 /WX- /sdl /O2 /Oi /Oy- /GL /D WIN32 /D NDEBUG /D _CONSOLE /D _UNICODE /D UNICODE /Gm- /EHsc /MD /GS /Gy /fp:precise /Zc:wchar_t /Zc:forScope /Zc:inline /Fo"RELEASE\\" /Fd"RELEASE\VC140.PDB" /Gd /TP /analyze- C:\USERS\SHANE\DOCUMENTS\VISUAL STUDIO 2015\PROJECTS\EDGE\EDGE\PLAYERSROOMCONTROLLER.CPP
^C:\USERS\SHANE\DOCUMENTS\VISUAL STUDIO 2015\PROJECTS\EDGE\EDGE\HALLWAYSYSTEM.CPP
/c /I"C:\USERS\SHANE\DOCUMENTS\VISUAL STUDIO 2015\PROJECTS\EDGE\EDGE\ASSIMP\INCLUDE" /I"C:\USERS\SHANE\DOCUMENTS\VISUAL STUDIO 2015\PROJECTS\EDGE\EDGE\SDL2-2.0.5\INCLUDE" /I"C:\USERS\SHANE\DOCUMENTS\VISUAL STUDIO 2015\PROJECTS\EDGE\EDGE\GLEW-2.0.0\INCLUDE" /I"C:\USERS\SHANE\DOCUMENTS\VISUAL STUDIO 2015\PROJECTS\EDGE\EDGE\GLM\TEST\EXTERNAL" /I"C:\USERS\SHANE\DOCUMENTS\VISUAL STUDIO 2015\PROJECTS\EDGE\EDGE\GLM" /I"C:\USERS\SHANE\DOCUMENTS\VISUAL STUDIO 2015\PROJECTS\EDGE\EDGE\GLM\GLM" /I"C:\USERS\SHANE\DOCUMENTS\VISUAL STUDIO 2015\PROJECTS\EDGE\EDGE\GLEW-2.0.0\INCLUDE" /I"C:\USERS\SHANE\DOCUMENTS\VISUAL STUDIO 2015\PROJECTS\EDGE\EDGE\GLEW-2.0.0\INCLUDE\GL" /I"E:\USERS\SKING14\FINAL\EDGE\EDGE\SDL2_IMAGE-2.0.1\INCLUDE" /I"E:\USERS\SKING14\FINAL\EDGE\EDGE\SDL2_MIXER-DEVEL-2.0.1-VC\SDL2_MIXER-2.0.1\INCLUDE" /I"E:\USERS\SKING14\FINAL\EDGE\EDGE\SDL2_TTF-DEVEL-2.0.14-VC\SDL2_TTF-2.0.14\INCLUDE" /I"E:\USERS\SKING14\FINAL\EDGE\EDGE\SDL2-2.0.5\INCLUDE" /I"C:\USERS\SHANE\DOCUMENTS\VISUAL STUDIO 2015\PROJECTS\EDGE\EDGE\SDL2_MIXER-DEVEL-2.0.1-VC\SDL2_MIXER-2.0.1\INCLUDE" /I"C:\USERS\SHANE\DOCUMENTS\VISUAL STUDIO 2015\PROJECTS\EDGE\EDGE\SDL2-2.0.5\INCLUDE" /I"C:\USERS\SHANE\DOCUMENTS\VISUAL STUDIO 2015\PROJECTS\EDGE\EDGE\SDL2_TTF-DEVEL-2.0.14-VC\SDL2_TTF-2.0.14\INCLUDE" /I"C:\USERS\SHANE\DOCUMENTS\VISUAL STUDIO 2015\PROJECTS\EDGE\EDGE\SDL2_IMAGE-2.0.1\INCLUDE" /I"C:\PROGRAM FILES (X86)\VISUAL LEAK DETECTOR\INCLUDE" /Zi /nologo /W3 /WX- /sdl /O2 /Oi /Oy- /GL /D WIN32 /D NDEBUG /D _CONSOLE /D _UNICODE /D UNICODE /Gm- /EHsc /MD /GS /Gy /fp:precise /Zc:wchar_t /Zc:forScope /Zc:inline /Fo"RELEASE\\" /Fd"RELEASE\VC140.PDB" /Gd /TP /analyze- C:\USERS\SHANE\DOCUMENTS\VISUAL STUDIO 2015\PROJECTS\EDGE\EDGE\HALLWAYSYSTEM.CPP
^C:\USERS\SHANE\DOCUMENTS\VISUAL STUDIO 2015\PROJECTS\EDGE\EDGE\PLAYERSYSTEM.CPP
/c /I"C:\USERS\SHANE\DOCUMENTS\VISUAL STUDIO 2015\PROJECTS\EDGE\EDGE\ASSIMP\INCLUDE" /I"C:\USERS\SHANE\DOCUMENTS\VISUAL STUDIO 2015\PROJECTS\EDGE\EDGE\SDL2-2.0.5\INCLUDE" /I"C:\USERS\SHANE\DOCUMENTS\VISUAL STUDIO 2015\PROJECTS\EDGE\EDGE\GLEW-2.0.0\INCLUDE" /I"C:\USERS\SHANE\DOCUMENTS\VISUAL STUDIO 2015\PROJECTS\EDGE\EDGE\GLM\TEST\EXTERNAL" /I"C:\USERS\SHANE\DOCUMENTS\VISUAL STUDIO 2015\PROJECTS\EDGE\EDGE\GLM" /I"C:\USERS\SHANE\DOCUMENTS\VISUAL STUDIO 2015\PROJECTS\EDGE\EDGE\GLM\GLM" /I"C:\USERS\SHANE\DOCUMENTS\VISUAL STUDIO 2015\PROJECTS\EDGE\EDGE\GLEW-2.0.0\INCLUDE" /I"C:\USERS\SHANE\DOCUMENTS\VISUAL STUDIO 2015\PROJECTS\EDGE\EDGE\GLEW-2.0.0\INCLUDE\GL" /I"E:\USERS\SKING14\FINAL\EDGE\EDGE\SDL2_IMAGE-2.0.1\INCLUDE" /I"E:\USERS\SKING14\FINAL\EDGE\EDGE\SDL2_MIXER-DEVEL-2.0.1-VC\SDL2_MIXER-2.0.1\INCLUDE" /I"E:\USERS\SKING14\FINAL\EDGE\EDGE\SDL2_TTF-DEVEL-2.0.14-VC\SDL2_TTF-2.0.14\INCLUDE" /I"E:\USERS\SKING14\FINAL\EDGE\EDGE\SDL2-2.0.5\INCLUDE" /I"C:\USERS\SHANE\DOCUMENTS\VISUAL STUDIO 2015\PROJECTS\EDGE\EDGE\SDL2_MIXER-DEVEL-2.0.1-VC\SDL2_MIXER-2.0.1\INCLUDE" /I"C:\USERS\SHANE\DOCUMENTS\VISUAL STUDIO 2015\PROJECTS\EDGE\EDGE\SDL2-2.0.5\INCLUDE" /I"C:\USERS\SHANE\DOCUMENTS\VISUAL STUDIO 2015\PROJECTS\EDGE\EDGE\SDL2_TTF-DEVEL-2.0.14-VC\SDL2_TTF-2.0.14\INCLUDE" /I"C:\USERS\SHANE\DOCUMENTS\VISUAL STUDIO 2015\PROJECTS\EDGE\EDGE\SDL2_IMAGE-2.0.1\INCLUDE" /I"C:\PROGRAM FILES (X86)\VISUAL LEAK DETECTOR\INCLUDE" /Zi /nologo /W3 /WX- /sdl /O2 /Oi /Oy- /GL /D WIN32 /D NDEBUG /D _CONSOLE /D _UNICODE /D UNICODE /Gm- /EHsc /MD /GS /Gy /fp:precise /Zc:wchar_t /Zc:forScope /Zc:inline /Fo"RELEASE\\" /Fd"RELEASE\VC140.PDB" /Gd /TP /analyze- C:\USERS\SHANE\DOCUMENTS\VISUAL STUDIO 2015\PROJECTS\EDGE\EDGE\PLAYERSYSTEM.CPP
^C:\USERS\SHANE\DOCUMENTS\VISUAL STUDIO 2015\PROJECTS\EDGE\EDGE\PLAYERVIEW.CPP
/c /I"C:\USERS\SHANE\DOCUMENTS\VISUAL STUDIO 2015\PROJECTS\EDGE\EDGE\ASSIMP\INCLUDE" /I"C:\USERS\SHANE\DOCUMENTS\VISUAL STUDIO 2015\PROJECTS\EDGE\EDGE\SDL2-2.0.5\INCLUDE" /I"C:\USERS\SHANE\DOCUMENTS\VISUAL STUDIO 2015\PROJECTS\EDGE\EDGE\GLEW-2.0.0\INCLUDE" /I"C:\USERS\SHANE\DOCUMENTS\VISUAL STUDIO 2015\PROJECTS\EDGE\EDGE\GLM\TEST\EXTERNAL" /I"C:\USERS\SHANE\DOCUMENTS\VISUAL STUDIO 2015\PROJECTS\EDGE\EDGE\GLM" /I"C:\USERS\SHANE\DOCUMENTS\VISUAL STUDIO 2015\PROJECTS\EDGE\EDGE\GLM\GLM" /I"C:\USERS\SHANE\DOCUMENTS\VISUAL STUDIO 2015\PROJECTS\EDGE\EDGE\GLEW-2.0.0\INCLUDE" /I"C:\USERS\SHANE\DOCUMENTS\VISUAL STUDIO 2015\PROJECTS\EDGE\EDGE\GLEW-2.0.0\INCLUDE\GL" /I"E:\USERS\SKING14\FINAL\EDGE\EDGE\SDL2_IMAGE-2.0.1\INCLUDE" /I"E:\USERS\SKING14\FINAL\EDGE\EDGE\SDL2_MIXER-DEVEL-2.0.1-VC\SDL2_MIXER-2.0.1\INCLUDE" /I"E:\USERS\SKING14\FINAL\EDGE\EDGE\SDL2_TTF-DEVEL-2.0.14-VC\SDL2_TTF-2.0.14\INCLUDE" /I"E:\USERS\SKING14\FINAL\EDGE\EDGE\SDL2-2.0.5\INCLUDE" /I"C:\USERS\SHANE\DOCUMENTS\VISUAL STUDIO 2015\PROJECTS\EDGE\EDGE\SDL2_MIXER-DEVEL-2.0.1-VC\SDL2_MIXER-2.0.1\INCLUDE" /I"C:\USERS\SHANE\DOCUMENTS\VISUAL STUDIO 2015\PROJECTS\EDGE\EDGE\SDL2-2.0.5\INCLUDE" /I"C:\USERS\SHANE\DOCUMENTS\VISUAL STUDIO 2015\PROJECTS\EDGE\EDGE\SDL2_TTF-DEVEL-2.0.14-VC\SDL2_TTF-2.0.14\INCLUDE" /I"C:\USERS\SHANE\DOCUMENTS\VISUAL STUDIO 2015\PROJECTS\EDGE\EDGE\SDL2_IMAGE-2.0.1\INCLUDE" /I"C:\PROGRAM FILES (X86)\VISUAL LEAK DETECTOR\INCLUDE" /Zi /nologo /W3 /WX- /sdl /O2 /Oi /Oy- /GL /D WIN32 /D NDEBUG /D _CONSOLE /D _UNICODE /D UNICODE /Gm- /EHsc /MD /GS /Gy /fp:precise /Zc:wchar_t /Zc:forScope /Zc:inline /Fo"RELEASE\\" /Fd"RELEASE\VC140.PDB" /Gd /TP /analyze- C:\USERS\SHANE\DOCUMENTS\VISUAL STUDIO 2015\PROJECTS\EDGE\EDGE\PLAYERVIEW.CPP
^C:\USERS\SHANE\DOCUMENTS\VISUAL STUDIO 2015\PROJECTS\EDGE\EDGE\RECROOMCONTROLLER.CPP
/c /I"C:\USERS\SHANE\DOCUMENTS\VISUAL STUDIO 2015\PROJECTS\EDGE\EDGE\ASSIMP\INCLUDE" /I"C:\USERS\SHANE\DOCUMENTS\VISUAL STUDIO 2015\PROJECTS\EDGE\EDGE\SDL2-2.0.5\INCLUDE" /I"C:\USERS\SHANE\DOCUMENTS\VISUAL STUDIO 2015\PROJECTS\EDGE\EDGE\GLEW-2.0.0\INCLUDE" /I"C:\USERS\SHANE\DOCUMENTS\VISUAL STUDIO 2015\PROJECTS\EDGE\EDGE\GLM\TEST\EXTERNAL" /I"C:\USERS\SHANE\DOCUMENTS\VISUAL STUDIO 2015\PROJECTS\EDGE\EDGE\GLM" /I"C:\USERS\SHANE\DOCUMENTS\VISUAL STUDIO 2015\PROJECTS\EDGE\EDGE\GLM\GLM" /I"C:\USERS\SHANE\DOCUMENTS\VISUAL STUDIO 2015\PROJECTS\EDGE\EDGE\GLEW-2.0.0\INCLUDE" /I"C:\USERS\SHANE\DOCUMENTS\VISUAL STUDIO 2015\PROJECTS\EDGE\EDGE\GLEW-2.0.0\INCLUDE\GL" /I"E:\USERS\SKING14\FINAL\EDGE\EDGE\SDL2_IMAGE-2.0.1\INCLUDE" /I"E:\USERS\SKING14\FINAL\EDGE\EDGE\SDL2_MIXER-DEVEL-2.0.1-VC\SDL2_MIXER-2.0.1\INCLUDE" /I"E:\USERS\SKING14\FINAL\EDGE\EDGE\SDL2_TTF-DEVEL-2.0.14-VC\SDL2_TTF-2.0.14\INCLUDE" /I"E:\USERS\SKING14\FINAL\EDGE\EDGE\SDL2-2.0.5\INCLUDE" /I"C:\USERS\SHANE\DOCUMENTS\VISUAL STUDIO 2015\PROJECTS\EDGE\EDGE\SDL2_MIXER-DEVEL-2.0.1-VC\SDL2_MIXER-2.0.1\INCLUDE" /I"C:\USERS\SHANE\DOCUMENTS\VISUAL STUDIO 2015\PROJECTS\EDGE\EDGE\SDL2-2.0.5\INCLUDE" /I"C:\USERS\SHANE\DOCUMENTS\VISUAL STUDIO 2015\PROJECTS\EDGE\EDGE\SDL2_TTF-DEVEL-2.0.14-VC\SDL2_TTF-2.0.14\INCLUDE" /I"C:\USERS\SHANE\DOCUMENTS\VISUAL STUDIO 2015\PROJECTS\EDGE\EDGE\SDL2_IMAGE-2.0.1\INCLUDE" /I"C:\PROGRAM FILES (X86)\VISUAL LEAK DETECTOR\INCLUDE" /Zi /nologo /W3 /WX- /sdl /O2 /Oi /Oy- /GL /D WIN32 /D NDEBUG /D _CONSOLE /D _UNICODE /D UNICODE /Gm- /EHsc /MD /GS /Gy /fp:precise /Zc:wchar_t /Zc:forScope /Zc:inline /Fo"RELEASE\\" /Fd"RELEASE\VC140.PDB" /Gd /TP /analyze- C:\USERS\SHANE\DOCUMENTS\VISUAL STUDIO 2015\PROJECTS\EDGE\EDGE\RECROOMCONTROLLER.CPP
^C:\USERS\SHANE\DOCUMENTS\VISUAL STUDIO 2015\PROJECTS\EDGE\EDGE\ROOMCONTROLLER.CPP
/c /I"C:\USERS\SHANE\DOCUMENTS\VISUAL STUDIO 2015\PROJECTS\EDGE\EDGE\ASSIMP\INCLUDE" /I"C:\USERS\SHANE\DOCUMENTS\VISUAL STUDIO 2015\PROJECTS\EDGE\EDGE\SDL2-2.0.5\INCLUDE" /I"C:\USERS\SHANE\DOCUMENTS\VISUAL STUDIO 2015\PROJECTS\EDGE\EDGE\GLEW-2.0.0\INCLUDE" /I"C:\USERS\SHANE\DOCUMENTS\VISUAL STUDIO 2015\PROJECTS\EDGE\EDGE\GLM\TEST\EXTERNAL" /I"C:\USERS\SHANE\DOCUMENTS\VISUAL STUDIO 2015\PROJECTS\EDGE\EDGE\GLM" /I"C:\USERS\SHANE\DOCUMENTS\VISUAL STUDIO 2015\PROJECTS\EDGE\EDGE\GLM\GLM" /I"C:\USERS\SHANE\DOCUMENTS\VISUAL STUDIO 2015\PROJECTS\EDGE\EDGE\GLEW-2.0.0\INCLUDE" /I"C:\USERS\SHANE\DOCUMENTS\VISUAL STUDIO 2015\PROJECTS\EDGE\EDGE\GLEW-2.0.0\INCLUDE\GL" /I"E:\USERS\SKING14\FINAL\EDGE\EDGE\SDL2_IMAGE-2.0.1\INCLUDE" /I"E:\USERS\SKING14\FINAL\EDGE\EDGE\SDL2_MIXER-DEVEL-2.0.1-VC\SDL2_MIXER-2.0.1\INCLUDE" /I"E:\USERS\SKING14\FINAL\EDGE\EDGE\SDL2_TTF-DEVEL-2.0.14-VC\SDL2_TTF-2.0.14\INCLUDE" /I"E:\USERS\SKING14\FINAL\EDGE\EDGE\SDL2-2.0.5\INCLUDE" /I"C:\USERS\SHANE\DOCUMENTS\VISUAL STUDIO 2015\PROJECTS\EDGE\EDGE\SDL2_MIXER-DEVEL-2.0.1-VC\SDL2_MIXER-2.0.1\INCLUDE" /I"C:\USERS\SHANE\DOCUMENTS\VISUAL STUDIO 2015\PROJECTS\EDGE\EDGE\SDL2-2.0.5\INCLUDE" /I"C:\USERS\SHANE\DOCUMENTS\VISUAL STUDIO 2015\PROJECTS\EDGE\EDGE\SDL2_TTF-DEVEL-2.0.14-VC\SDL2_TTF-2.0.14\INCLUDE" /I"C:\USERS\SHANE\DOCUMENTS\VISUAL STUDIO 2015\PROJECTS\EDGE\EDGE\SDL2_IMAGE-2.0.1\INCLUDE" /I"C:\PROGRAM FILES (X86)\VISUAL LEAK DETECTOR\INCLUDE" /Zi /nologo /W3 /WX- /sdl /O2 /Oi /Oy- /GL /D WIN32 /D NDEBUG /D _CONSOLE /D _UNICODE /D UNICODE /Gm- /EHsc /MD /GS /Gy /fp:precise /Zc:wchar_t /Zc:forScope /Zc:inline /Fo"RELEASE\\" /Fd"RELEASE\VC140.PDB" /Gd /TP /analyze- C:\USERS\SHANE\DOCUMENTS\VISUAL STUDIO 2015\PROJECTS\EDGE\EDGE\ROOMCONTROLLER.CPP
^C:\USERS\SHANE\DOCUMENTS\VISUAL STUDIO 2015\PROJECTS\EDGE\EDGE\ROOMMODEL.CPP
/c /I"C:\USERS\SHANE\DOCUMENTS\VISUAL STUDIO 2015\PROJECTS\EDGE\EDGE\ASSIMP\INCLUDE" /I"C:\USERS\SHANE\DOCUMENTS\VISUAL STUDIO 2015\PROJECTS\EDGE\EDGE\SDL2-2.0.5\INCLUDE" /I"C:\USERS\SHANE\DOCUMENTS\VISUAL STUDIO 2015\PROJECTS\EDGE\EDGE\GLEW-2.0.0\INCLUDE" /I"C:\USERS\SHANE\DOCUMENTS\VISUAL STUDIO 2015\PROJECTS\EDGE\EDGE\GLM\TEST\EXTERNAL" /I"C:\USERS\SHANE\DOCUMENTS\VISUAL STUDIO 2015\PROJECTS\EDGE\EDGE\GLM" /I"C:\USERS\SHANE\DOCUMENTS\VISUAL STUDIO 2015\PROJECTS\EDGE\EDGE\GLM\GLM" /I"C:\USERS\SHANE\DOCUMENTS\VISUAL STUDIO 2015\PROJECTS\EDGE\EDGE\GLEW-2.0.0\INCLUDE" /I"C:\USERS\SHANE\DOCUMENTS\VISUAL STUDIO 2015\PROJECTS\EDGE\EDGE\GLEW-2.0.0\INCLUDE\GL" /I"E:\USERS\SKING14\FINAL\EDGE\EDGE\SDL2_IMAGE-2.0.1\INCLUDE" /I"E:\USERS\SKING14\FINAL\EDGE\EDGE\SDL2_MIXER-DEVEL-2.0.1-VC\SDL2_MIXER-2.0.1\INCLUDE" /I"E:\USERS\SKING14\FINAL\EDGE\EDGE\SDL2_TTF-DEVEL-2.0.14-VC\SDL2_TTF-2.0.14\INCLUDE" /I"E:\USERS\SKING14\FINAL\EDGE\EDGE\SDL2-2.0.5\INCLUDE" /I"C:\USERS\SHANE\DOCUMENTS\VISUAL STUDIO 2015\PROJECTS\EDGE\EDGE\SDL2_MIXER-DEVEL-2.0.1-VC\SDL2_MIXER-2.0.1\INCLUDE" /I"C:\USERS\SHANE\DOCUMENTS\VISUAL STUDIO 2015\PROJECTS\EDGE\EDGE\SDL2-2.0.5\INCLUDE" /I"C:\USERS\SHANE\DOCUMENTS\VISUAL STUDIO 2015\PROJECTS\EDGE\EDGE\SDL2_TTF-DEVEL-2.0.14-VC\SDL2_TTF-2.0.14\INCLUDE" /I"C:\USERS\SHANE\DOCUMENTS\VISUAL STUDIO 2015\PROJECTS\EDGE\EDGE\SDL2_IMAGE-2.0.1\INCLUDE" /I"C:\PROGRAM FILES (X86)\VISUAL LEAK DETECTOR\INCLUDE" /Zi /nologo /W3 /WX- /sdl /O2 /Oi /Oy- /GL /D WIN32 /D NDEBUG /D _CONSOLE /D _UNICODE /D UNICODE /Gm- /EHsc /MD /GS /Gy /fp:precise /Zc:wchar_t /Zc:forScope /Zc:inline /Fo"RELEASE\\" /Fd"RELEASE\VC140.PDB" /Gd /TP /analyze- C:\USERS\SHANE\DOCUMENTS\VISUAL STUDIO 2015\PROJECTS\EDGE\EDGE\ROOMMODEL.CPP
^C:\USERS\SHANE\DOCUMENTS\VISUAL STUDIO 2015\PROJECTS\EDGE\EDGE\ROOMVIEW.CPP
/c /I"C:\USERS\SHANE\DOCUMENTS\VISUAL STUDIO 2015\PROJECTS\EDGE\EDGE\ASSIMP\INCLUDE" /I"C:\USERS\SHANE\DOCUMENTS\VISUAL STUDIO 2015\PROJECTS\EDGE\EDGE\SDL2-2.0.5\INCLUDE" /I"C:\USERS\SHANE\DOCUMENTS\VISUAL STUDIO 2015\PROJECTS\EDGE\EDGE\GLEW-2.0.0\INCLUDE" /I"C:\USERS\SHANE\DOCUMENTS\VISUAL STUDIO 2015\PROJECTS\EDGE\EDGE\GLM\TEST\EXTERNAL" /I"C:\USERS\SHANE\DOCUMENTS\VISUAL STUDIO 2015\PROJECTS\EDGE\EDGE\GLM" /I"C:\USERS\SHANE\DOCUMENTS\VISUAL STUDIO 2015\PROJECTS\EDGE\EDGE\GLM\GLM" /I"C:\USERS\SHANE\DOCUMENTS\VISUAL STUDIO 2015\PROJECTS\EDGE\EDGE\GLEW-2.0.0\INCLUDE" /I"C:\USERS\SHANE\DOCUMENTS\VISUAL STUDIO 2015\PROJECTS\EDGE\EDGE\GLEW-2.0.0\INCLUDE\GL" /I"E:\USERS\SKING14\FINAL\EDGE\EDGE\SDL2_IMAGE-2.0.1\INCLUDE" /I"E:\USERS\SKING14\FINAL\EDGE\EDGE\SDL2_MIXER-DEVEL-2.0.1-VC\SDL2_MIXER-2.0.1\INCLUDE" /I"E:\USERS\SKING14\FINAL\EDGE\EDGE\SDL2_TTF-DEVEL-2.0.14-VC\SDL2_TTF-2.0.14\INCLUDE" /I"E:\USERS\SKING14\FINAL\EDGE\EDGE\SDL2-2.0.5\INCLUDE" /I"C:\USERS\SHANE\DOCUMENTS\VISUAL STUDIO 2015\PROJECTS\EDGE\EDGE\SDL2_MIXER-DEVEL-2.0.1-VC\SDL2_MIXER-2.0.1\INCLUDE" /I"C:\USERS\SHANE\DOCUMENTS\VISUAL STUDIO 2015\PROJECTS\EDGE\EDGE\SDL2-2.0.5\INCLUDE" /I"C:\USERS\SHANE\DOCUMENTS\VISUAL STUDIO 2015\PROJECTS\EDGE\EDGE\SDL2_TTF-DEVEL-2.0.14-VC\SDL2_TTF-2.0.14\INCLUDE" /I"C:\USERS\SHANE\DOCUMENTS\VISUAL STUDIO 2015\PROJECTS\EDGE\EDGE\SDL2_IMAGE-2.0.1\INCLUDE" /I"C:\PROGRAM FILES (X86)\VISUAL LEAK DETECTOR\INCLUDE" /Zi /nologo /W3 /WX- /sdl /O2 /Oi /Oy- /GL /D WIN32 /D NDEBUG /D _CONSOLE /D _UNICODE /D UNICODE /Gm- /EHsc /MD /GS /Gy /fp:precise /Zc:wchar_t /Zc:forScope /Zc:inline /Fo"RELEASE\\" /Fd"RELEASE\VC140.PDB" /Gd /TP /analyze- C:\USERS\SHANE\DOCUMENTS\VISUAL STUDIO 2015\PROJECTS\EDGE\EDGE\ROOMVIEW.CPP
^C:\USERS\SHANE\DOCUMENTS\VISUAL STUDIO 2015\PROJECTS\EDGE\EDGE\SELECTIONBOX.CPP
/c /I"C:\USERS\SHANE\DOCUMENTS\VISUAL STUDIO 2015\PROJECTS\EDGE\EDGE\ASSIMP\INCLUDE" /I"C:\USERS\SHANE\DOCUMENTS\VISUAL STUDIO 2015\PROJECTS\EDGE\EDGE\SDL2-2.0.5\INCLUDE" /I"C:\USERS\SHANE\DOCUMENTS\VISUAL STUDIO 2015\PROJECTS\EDGE\EDGE\GLEW-2.0.0\INCLUDE" /I"C:\USERS\SHANE\DOCUMENTS\VISUAL STUDIO 2015\PROJECTS\EDGE\EDGE\GLM\TEST\EXTERNAL" /I"C:\USERS\SHANE\DOCUMENTS\VISUAL STUDIO 2015\PROJECTS\EDGE\EDGE\GLM" /I"C:\USERS\SHANE\DOCUMENTS\VISUAL STUDIO 2015\PROJECTS\EDGE\EDGE\GLM\GLM" /I"C:\USERS\SHANE\DOCUMENTS\VISUAL STUDIO 2015\PROJECTS\EDGE\EDGE\GLEW-2.0.0\INCLUDE" /I"C:\USERS\SHANE\DOCUMENTS\VISUAL STUDIO 2015\PROJECTS\EDGE\EDGE\GLEW-2.0.0\INCLUDE\GL" /I"E:\USERS\SKING14\FINAL\EDGE\EDGE\SDL2_IMAGE-2.0.1\INCLUDE" /I"E:\USERS\SKING14\FINAL\EDGE\EDGE\SDL2_MIXER-DEVEL-2.0.1-VC\SDL2_MIXER-2.0.1\INCLUDE" /I"E:\USERS\SKING14\FINAL\EDGE\EDGE\SDL2_TTF-DEVEL-2.0.14-VC\SDL2_TTF-2.0.14\INCLUDE" /I"E:\USERS\SKING14\FINAL\EDGE\EDGE\SDL2-2.0.5\INCLUDE" /I"C:\USERS\SHANE\DOCUMENTS\VISUAL STUDIO 2015\PROJECTS\EDGE\EDGE\SDL2_MIXER-DEVEL-2.0.1-VC\SDL2_MIXER-2.0.1\INCLUDE" /I"C:\USERS\SHANE\DOCUMENTS\VISUAL STUDIO 2015\PROJECTS\EDGE\EDGE\SDL2-2.0.5\INCLUDE" /I"C:\USERS\SHANE\DOCUMENTS\VISUAL STUDIO 2015\PROJECTS\EDGE\EDGE\SDL2_TTF-DEVEL-2.0.14-VC\SDL2_TTF-2.0.14\INCLUDE" /I"C:\USERS\SHANE\DOCUMENTS\VISUAL STUDIO 2015\PROJECTS\EDGE\EDGE\SDL2_IMAGE-2.0.1\INCLUDE" /I"C:\PROGRAM FILES (X86)\VISUAL LEAK DETECTOR\INCLUDE" /Zi /nologo /W3 /WX- /sdl /O2 /Oi /Oy- /GL /D WIN32 /D NDEBUG /D _CONSOLE /D _UNICODE /D UNICODE /Gm- /EHsc /MD /GS /Gy /fp:precise /Zc:wchar_t /Zc:forScope /Zc:inline /Fo"RELEASE\\" /Fd"RELEASE\VC140.PDB" /Gd /TP /analyze- C:\USERS\SHANE\DOCUMENTS\VISUAL STUDIO 2015\PROJECTS\EDGE\EDGE\SELECTIONBOX.CPP
^C:\USERS\SHANE\DOCUMENTS\VISUAL STUDIO 2015\PROJECTS\EDGE\EDGE\SELECTIONBOXSYSTEM.CPP
/c /I"C:\USERS\SHANE\DOCUMENTS\VISUAL STUDIO 2015\PROJECTS\EDGE\EDGE\ASSIMP\INCLUDE" /I"C:\USERS\SHANE\DOCUMENTS\VISUAL STUDIO 2015\PROJECTS\EDGE\EDGE\SDL2-2.0.5\INCLUDE" /I"C:\USERS\SHANE\DOCUMENTS\VISUAL STUDIO 2015\PROJECTS\EDGE\EDGE\GLEW-2.0.0\INCLUDE" /I"C:\USERS\SHANE\DOCUMENTS\VISUAL STUDIO 2015\PROJECTS\EDGE\EDGE\GLM\TEST\EXTERNAL" /I"C:\USERS\SHANE\DOCUMENTS\VISUAL STUDIO 2015\PROJECTS\EDGE\EDGE\GLM" /I"C:\USERS\SHANE\DOCUMENTS\VISUAL STUDIO 2015\PROJECTS\EDGE\EDGE\GLM\GLM" /I"C:\USERS\SHANE\DOCUMENTS\VISUAL STUDIO 2015\PROJECTS\EDGE\EDGE\GLEW-2.0.0\INCLUDE" /I"C:\USERS\SHANE\DOCUMENTS\VISUAL STUDIO 2015\PROJECTS\EDGE\EDGE\GLEW-2.0.0\INCLUDE\GL" /I"E:\USERS\SKING14\FINAL\EDGE\EDGE\SDL2_IMAGE-2.0.1\INCLUDE" /I"E:\USERS\SKING14\FINAL\EDGE\EDGE\SDL2_MIXER-DEVEL-2.0.1-VC\SDL2_MIXER-2.0.1\INCLUDE" /I"E:\USERS\SKING14\FINAL\EDGE\EDGE\SDL2_TTF-DEVEL-2.0.14-VC\SDL2_TTF-2.0.14\INCLUDE" /I"E:\USERS\SKING14\FINAL\EDGE\EDGE\SDL2-2.0.5\INCLUDE" /I"C:\USERS\SHANE\DOCUMENTS\VISUAL STUDIO 2015\PROJECTS\EDGE\EDGE\SDL2_MIXER-DEVEL-2.0.1-VC\SDL2_MIXER-2.0.1\INCLUDE" /I"C:\USERS\SHANE\DOCUMENTS\VISUAL STUDIO 2015\PROJECTS\EDGE\EDGE\SDL2-2.0.5\INCLUDE" /I"C:\USERS\SHANE\DOCUMENTS\VISUAL STUDIO 2015\PROJECTS\EDGE\EDGE\SDL2_TTF-DEVEL-2.0.14-VC\SDL2_TTF-2.0.14\INCLUDE" /I"C:\USERS\SHANE\DOCUMENTS\VISUAL STUDIO 2015\PROJECTS\EDGE\EDGE\SDL2_IMAGE-2.0.1\INCLUDE" /I"C:\PROGRAM FILES (X86)\VISUAL LEAK DETECTOR\INCLUDE" /Zi /nologo /W3 /WX- /sdl /O2 /Oi /Oy- /GL /D WIN32 /D NDEBUG /D _CONSOLE /D _UNICODE /D UNICODE /Gm- /EHsc /MD /GS /Gy /fp:precise /Zc:wchar_t /Zc:forScope /Zc:inline /Fo"RELEASE\\" /Fd"RELEASE\VC140.PDB" /Gd /TP /analyze- C:\USERS\SHANE\DOCUMENTS\VISUAL STUDIO 2015\PROJECTS\EDGE\EDGE\SELECTIONBOXSYSTEM.CPP
^C:\USERS\SHANE\DOCUMENTS\VISUAL STUDIO 2015\PROJECTS\EDGE\EDGE\SFX.CPP
/c /I"C:\USERS\SHANE\DOCUMENTS\VISUAL STUDIO 2015\PROJECTS\EDGE\EDGE\ASSIMP\INCLUDE" /I"C:\USERS\SHANE\DOCUMENTS\VISUAL STUDIO 2015\PROJECTS\EDGE\EDGE\SDL2-2.0.5\INCLUDE" /I"C:\USERS\SHANE\DOCUMENTS\VISUAL STUDIO 2015\PROJECTS\EDGE\EDGE\GLEW-2.0.0\INCLUDE" /I"C:\USERS\SHANE\DOCUMENTS\VISUAL STUDIO 2015\PROJECTS\EDGE\EDGE\GLM\TEST\EXTERNAL" /I"C:\USERS\SHANE\DOCUMENTS\VISUAL STUDIO 2015\PROJECTS\EDGE\EDGE\GLM" /I"C:\USERS\SHANE\DOCUMENTS\VISUAL STUDIO 2015\PROJECTS\EDGE\EDGE\GLM\GLM" /I"C:\USERS\SHANE\DOCUMENTS\VISUAL STUDIO 2015\PROJECTS\EDGE\EDGE\GLEW-2.0.0\INCLUDE" /I"C:\USERS\SHANE\DOCUMENTS\VISUAL STUDIO 2015\PROJECTS\EDGE\EDGE\GLEW-2.0.0\INCLUDE\GL" /I"E:\USERS\SKING14\FINAL\EDGE\EDGE\SDL2_IMAGE-2.0.1\INCLUDE" /I"E:\USERS\SKING14\FINAL\EDGE\EDGE\SDL2_MIXER-DEVEL-2.0.1-VC\SDL2_MIXER-2.0.1\INCLUDE" /I"E:\USERS\SKING14\FINAL\EDGE\EDGE\SDL2_TTF-DEVEL-2.0.14-VC\SDL2_TTF-2.0.14\INCLUDE" /I"E:\USERS\SKING14\FINAL\EDGE\EDGE\SDL2-2.0.5\INCLUDE" /I"C:\USERS\SHANE\DOCUMENTS\VISUAL STUDIO 2015\PROJECTS\EDGE\EDGE\SDL2_MIXER-DEVEL-2.0.1-VC\SDL2_MIXER-2.0.1\INCLUDE" /I"C:\USERS\SHANE\DOCUMENTS\VISUAL STUDIO 2015\PROJECTS\EDGE\EDGE\SDL2-2.0.5\INCLUDE" /I"C:\USERS\SHANE\DOCUMENTS\VISUAL STUDIO 2015\PROJECTS\EDGE\EDGE\SDL2_TTF-DEVEL-2.0.14-VC\SDL2_TTF-2.0.14\INCLUDE" /I"C:\USERS\SHANE\DOCUMENTS\VISUAL STUDIO 2015\PROJECTS\EDGE\EDGE\SDL2_IMAGE-2.0.1\INCLUDE" /I"C:\PROGRAM FILES (X86)\VISUAL LEAK DETECTOR\INCLUDE" /Zi /nologo /W3 /WX- /sdl /O2 /Oi /Oy- /GL /D WIN32 /D NDEBUG /D _CONSOLE /D _UNICODE /D UNICODE /Gm- /EHsc /MD /GS /Gy /fp:precise /Zc:wchar_t /Zc:forScope /Zc:inline /Fo"RELEASE\\" /Fd"RELEASE\VC140.PDB" /Gd /TP /analyze- C:\USERS\SHANE\DOCUMENTS\VISUAL STUDIO 2015\PROJECTS\EDGE\EDGE\SFX.CPP
^C:\USERS\SHANE\DOCUMENTS\VISUAL STUDIO 2015\PROJECTS\EDGE\EDGE\SKYROOMCONTROLLER.CPP
/c /I"C:\USERS\SHANE\DOCUMENTS\VISUAL STUDIO 2015\PROJECTS\EDGE\EDGE\ASSIMP\INCLUDE" /I"C:\USERS\SHANE\DOCUMENTS\VISUAL STUDIO 2015\PROJECTS\EDGE\EDGE\SDL2-2.0.5\INCLUDE" /I"C:\USERS\SHANE\DOCUMENTS\VISUAL STUDIO 2015\PROJECTS\EDGE\EDGE\GLEW-2.0.0\INCLUDE" /I"C:\USERS\SHANE\DOCUMENTS\VISUAL STUDIO 2015\PROJECTS\EDGE\EDGE\GLM\TEST\EXTERNAL" /I"C:\USERS\SHANE\DOCUMENTS\VISUAL STUDIO 2015\PROJECTS\EDGE\EDGE\GLM" /I"C:\USERS\SHANE\DOCUMENTS\VISUAL STUDIO 2015\PROJECTS\EDGE\EDGE\GLM\GLM" /I"C:\USERS\SHANE\DOCUMENTS\VISUAL STUDIO 2015\PROJECTS\EDGE\EDGE\GLEW-2.0.0\INCLUDE" /I"C:\USERS\SHANE\DOCUMENTS\VISUAL STUDIO 2015\PROJECTS\EDGE\EDGE\GLEW-2.0.0\INCLUDE\GL" /I"E:\USERS\SKING14\FINAL\EDGE\EDGE\SDL2_IMAGE-2.0.1\INCLUDE" /I"E:\USERS\SKING14\FINAL\EDGE\EDGE\SDL2_MIXER-DEVEL-2.0.1-VC\SDL2_MIXER-2.0.1\INCLUDE" /I"E:\USERS\SKING14\FINAL\EDGE\EDGE\SDL2_TTF-DEVEL-2.0.14-VC\SDL2_TTF-2.0.14\INCLUDE" /I"E:\USERS\SKING14\FINAL\EDGE\EDGE\SDL2-2.0.5\INCLUDE" /I"C:\USERS\SHANE\DOCUMENTS\VISUAL STUDIO 2015\PROJECTS\EDGE\EDGE\SDL2_MIXER-DEVEL-2.0.1-VC\SDL2_MIXER-2.0.1\INCLUDE" /I"C:\USERS\SHANE\DOCUMENTS\VISUAL STUDIO 2015\PROJECTS\EDGE\EDGE\SDL2-2.0.5\INCLUDE" /I"C:\USERS\SHANE\DOCUMENTS\VISUAL STUDIO 2015\PROJECTS\EDGE\EDGE\SDL2_TTF-DEVEL-2.0.14-VC\SDL2_TTF-2.0.14\INCLUDE" /I"C:\USERS\SHANE\DOCUMENTS\VISUAL STUDIO 2015\PROJECTS\EDGE\EDGE\SDL2_IMAGE-2.0.1\INCLUDE" /I"C:\PROGRAM FILES (X86)\VISUAL LEAK DETECTOR\INCLUDE" /Zi /nologo /W3 /WX- /sdl /O2 /Oi /Oy- /GL /D WIN32 /D NDEBUG /D _CONSOLE /D _UNICODE /D UNICODE /Gm- /EHsc /MD /GS /Gy /fp:precise /Zc:wchar_t /Zc:forScope /Zc:inline /Fo"RELEASE\\" /Fd"RELEASE\VC140.PDB" /Gd /TP /analyze- C:\USERS\SHANE\DOCUMENTS\VISUAL STUDIO 2015\PROJECTS\EDGE\EDGE\SKYROOMCONTROLLER.CPP
^C:\USERS\SHANE\DOCUMENTS\VISUAL STUDIO 2015\PROJECTS\EDGE\EDGE\TEXTBOX.CPP
/c /I"C:\USERS\SHANE\DOCUMENTS\VISUAL STUDIO 2015\PROJECTS\EDGE\EDGE\ASSIMP\INCLUDE" /I"C:\USERS\SHANE\DOCUMENTS\VISUAL STUDIO 2015\PROJECTS\EDGE\EDGE\SDL2-2.0.5\INCLUDE" /I"C:\USERS\SHANE\DOCUMENTS\VISUAL STUDIO 2015\PROJECTS\EDGE\EDGE\GLEW-2.0.0\INCLUDE" /I"C:\USERS\SHANE\DOCUMENTS\VISUAL STUDIO 2015\PROJECTS\EDGE\EDGE\GLM\TEST\EXTERNAL" /I"C:\USERS\SHANE\DOCUMENTS\VISUAL STUDIO 2015\PROJECTS\EDGE\EDGE\GLM" /I"C:\USERS\SHANE\DOCUMENTS\VISUAL STUDIO 2015\PROJECTS\EDGE\EDGE\GLM\GLM" /I"C:\USERS\SHANE\DOCUMENTS\VISUAL STUDIO 2015\PROJECTS\EDGE\EDGE\GLEW-2.0.0\INCLUDE" /I"C:\USERS\SHANE\DOCUMENTS\VISUAL STUDIO 2015\PROJECTS\EDGE\EDGE\GLEW-2.0.0\INCLUDE\GL" /I"E:\USERS\SKING14\FINAL\EDGE\EDGE\SDL2_IMAGE-2.0.1\INCLUDE" /I"E:\USERS\SKING14\FINAL\EDGE\EDGE\SDL2_MIXER-DEVEL-2.0.1-VC\SDL2_MIXER-2.0.1\INCLUDE" /I"E:\USERS\SKING14\FINAL\EDGE\EDGE\SDL2_TTF-DEVEL-2.0.14-VC\SDL2_TTF-2.0.14\INCLUDE" /I"E:\USERS\SKING14\FINAL\EDGE\EDGE\SDL2-2.0.5\INCLUDE" /I"C:\USERS\SHANE\DOCUMENTS\VISUAL STUDIO 2015\PROJECTS\EDGE\EDGE\SDL2_MIXER-DEVEL-2.0.1-VC\SDL2_MIXER-2.0.1\INCLUDE" /I"C:\USERS\SHANE\DOCUMENTS\VISUAL STUDIO 2015\PROJECTS\EDGE\EDGE\SDL2-2.0.5\INCLUDE" /I"C:\USERS\SHANE\DOCUMENTS\VISUAL STUDIO 2015\PROJECTS\EDGE\EDGE\SDL2_TTF-DEVEL-2.0.14-VC\SDL2_TTF-2.0.14\INCLUDE" /I"C:\USERS\SHANE\DOCUMENTS\VISUAL STUDIO 2015\PROJECTS\EDGE\EDGE\SDL2_IMAGE-2.0.1\INCLUDE" /I"C:\PROGRAM FILES (X86)\VISUAL LEAK DETECTOR\INCLUDE" /Zi /nologo /W3 /WX- /sdl /O2 /Oi /Oy- /GL /D WIN32 /D NDEBUG /D _CONSOLE /D _UNICODE /D UNICODE /Gm- /EHsc /MD /GS /Gy /fp:precise /Zc:wchar_t /Zc:forScope /Zc:inline /Fo"RELEASE\\" /Fd"RELEASE\VC140.PDB" /Gd /TP /analyze- C:\USERS\SHANE\DOCUMENTS\VISUAL STUDIO 2015\PROJECTS\EDGE\EDGE\TEXTBOX.CPP
^C:\USERS\SHANE\DOCUMENTS\VISUAL STUDIO 2015\PROJECTS\EDGE\EDGE\TEXTFILEREADER.CPP
/c /I"C:\USERS\SHANE\DOCUMENTS\VISUAL STUDIO 2015\PROJECTS\EDGE\EDGE\ASSIMP\INCLUDE" /I"C:\USERS\SHANE\DOCUMENTS\VISUAL STUDIO 2015\PROJECTS\EDGE\EDGE\SDL2-2.0.5\INCLUDE" /I"C:\USERS\SHANE\DOCUMENTS\VISUAL STUDIO 2015\PROJECTS\EDGE\EDGE\GLEW-2.0.0\INCLUDE" /I"C:\USERS\SHANE\DOCUMENTS\VISUAL STUDIO 2015\PROJECTS\EDGE\EDGE\GLM\TEST\EXTERNAL" /I"C:\USERS\SHANE\DOCUMENTS\VISUAL STUDIO 2015\PROJECTS\EDGE\EDGE\GLM" /I"C:\USERS\SHANE\DOCUMENTS\VISUAL STUDIO 2015\PROJECTS\EDGE\EDGE\GLM\GLM" /I"C:\USERS\SHANE\DOCUMENTS\VISUAL STUDIO 2015\PROJECTS\EDGE\EDGE\GLEW-2.0.0\INCLUDE" /I"C:\USERS\SHANE\DOCUMENTS\VISUAL STUDIO 2015\PROJECTS\EDGE\EDGE\GLEW-2.0.0\INCLUDE\GL" /I"E:\USERS\SKING14\FINAL\EDGE\EDGE\SDL2_IMAGE-2.0.1\INCLUDE" /I"E:\USERS\SKING14\FINAL\EDGE\EDGE\SDL2_MIXER-DEVEL-2.0.1-VC\SDL2_MIXER-2.0.1\INCLUDE" /I"E:\USERS\SKING14\FINAL\EDGE\EDGE\SDL2_TTF-DEVEL-2.0.14-VC\SDL2_TTF-2.0.14\INCLUDE" /I"E:\USERS\SKING14\FINAL\EDGE\EDGE\SDL2-2.0.5\INCLUDE" /I"C:\USERS\SHANE\DOCUMENTS\VISUAL STUDIO 2015\PROJECTS\EDGE\EDGE\SDL2_MIXER-DEVEL-2.0.1-VC\SDL2_MIXER-2.0.1\INCLUDE" /I"C:\USERS\SHANE\DOCUMENTS\VISUAL STUDIO 2015\PROJECTS\EDGE\EDGE\SDL2-2.0.5\INCLUDE" /I"C:\USERS\SHANE\DOCUMENTS\VISUAL STUDIO 2015\PROJECTS\EDGE\EDGE\SDL2_TTF-DEVEL-2.0.14-VC\SDL2_TTF-2.0.14\INCLUDE" /I"C:\USERS\SHANE\DOCUMENTS\VISUAL STUDIO 2015\PROJECTS\EDGE\EDGE\SDL2_IMAGE-2.0.1\INCLUDE" /I"C:\PROGRAM FILES (X86)\VISUAL LEAK DETECTOR\INCLUDE" /Zi /nologo /W3 /WX- /sdl /O2 /Oi /Oy- /GL /D WIN32 /D NDEBUG /D _CONSOLE /D _UNICODE /D UNICODE /Gm- /EHsc /MD /GS /Gy /fp:precise /Zc:wchar_t /Zc:forScope /Zc:inline /Fo"RELEASE\\" /Fd"RELEASE\VC140.PDB" /Gd /TP /analyze- C:\USERS\SHANE\DOCUMENTS\VISUAL STUDIO 2015\PROJECTS\EDGE\EDGE\TEXTFILEREADER.CPP
^C:\USERS\SHANE\DOCUMENTS\VISUAL STUDIO 2015\PROJECTS\EDGE\EDGE\IMAGE.CPP
/c /I"C:\USERS\SHANE\DOCUMENTS\VISUAL STUDIO 2015\PROJECTS\EDGE\EDGE\ASSIMP\INCLUDE" /I"C:\USERS\SHANE\DOCUMENTS\VISUAL STUDIO 2015\PROJECTS\EDGE\EDGE\SDL2-2.0.5\INCLUDE" /I"C:\USERS\SHANE\DOCUMENTS\VISUAL STUDIO 2015\PROJECTS\EDGE\EDGE\GLEW-2.0.0\INCLUDE" /I"C:\USERS\SHANE\DOCUMENTS\VISUAL STUDIO 2015\PROJECTS\EDGE\EDGE\GLM\TEST\EXTERNAL" /I"C:\USERS\SHANE\DOCUMENTS\VISUAL STUDIO 2015\PROJECTS\EDGE\EDGE\GLM" /I"C:\USERS\SHANE\DOCUMENTS\VISUAL STUDIO 2015\PROJECTS\EDGE\EDGE\GLM\GLM" /I"C:\USERS\SHANE\DOCUMENTS\VISUAL STUDIO 2015\PROJECTS\EDGE\EDGE\GLEW-2.0.0\INCLUDE" /I"C:\USERS\SHANE\DOCUMENTS\VISUAL STUDIO 2015\PROJECTS\EDGE\EDGE\GLEW-2.0.0\INCLUDE\GL" /I"E:\USERS\SKING14\FINAL\EDGE\EDGE\SDL2_IMAGE-2.0.1\INCLUDE" /I"E:\USERS\SKING14\FINAL\EDGE\EDGE\SDL2_MIXER-DEVEL-2.0.1-VC\SDL2_MIXER-2.0.1\INCLUDE" /I"E:\USERS\SKING14\FINAL\EDGE\EDGE\SDL2_TTF-DEVEL-2.0.14-VC\SDL2_TTF-2.0.14\INCLUDE" /I"E:\USERS\SKING14\FINAL\EDGE\EDGE\SDL2-2.0.5\INCLUDE" /I"C:\USERS\SHANE\DOCUMENTS\VISUAL STUDIO 2015\PROJECTS\EDGE\EDGE\SDL2_MIXER-DEVEL-2.0.1-VC\SDL2_MIXER-2.0.1\INCLUDE" /I"C:\USERS\SHANE\DOCUMENTS\VISUAL STUDIO 2015\PROJECTS\EDGE\EDGE\SDL2-2.0.5\INCLUDE" /I"C:\USERS\SHANE\DOCUMENTS\VISUAL STUDIO 2015\PROJECTS\EDGE\EDGE\SDL2_TTF-DEVEL-2.0.14-VC\SDL2_TTF-2.0.14\INCLUDE" /I"C:\USERS\SHANE\DOCUMENTS\VISUAL STUDIO 2015\PROJECTS\EDGE\EDGE\SDL2_IMAGE-2.0.1\INCLUDE" /I"C:\PROGRAM FILES (X86)\VISUAL LEAK DETECTOR\INCLUDE" /Zi /nologo /W3 /WX- /sdl /O2 /Oi /Oy- /GL /D WIN32 /D NDEBUG /D _CONSOLE /D _UNICODE /D UNICODE /Gm- /EHsc /MD /GS /Gy /fp:precise /Zc:wchar_t /Zc:forScope /Zc:inline /Fo"RELEASE\\" /Fd"RELEASE\VC140.PDB" /Gd /TP /analyze- C:\USERS\SHANE\DOCUMENTS\VISUAL STUDIO 2015\PROJECTS\EDGE\EDGE\IMAGE.CPP
^C:\USERS\SHANE\DOCUMENTS\VISUAL STUDIO 2015\PROJECTS\EDGE\EDGE\TEXTUREDMESH.CPP
/c /I"C:\USERS\SHANE\DOCUMENTS\VISUAL STUDIO 2015\PROJECTS\EDGE\EDGE\ASSIMP\INCLUDE" /I"C:\USERS\SHANE\DOCUMENTS\VISUAL STUDIO 2015\PROJECTS\EDGE\EDGE\SDL2-2.0.5\INCLUDE" /I"C:\USERS\SHANE\DOCUMENTS\VISUAL STUDIO 2015\PROJECTS\EDGE\EDGE\GLEW-2.0.0\INCLUDE" /I"C:\USERS\SHANE\DOCUMENTS\VISUAL STUDIO 2015\PROJECTS\EDGE\EDGE\GLM\TEST\EXTERNAL" /I"C:\USERS\SHANE\DOCUMENTS\VISUAL STUDIO 2015\PROJECTS\EDGE\EDGE\GLM" /I"C:\USERS\SHANE\DOCUMENTS\VISUAL STUDIO 2015\PROJECTS\EDGE\EDGE\GLM\GLM" /I"C:\USERS\SHANE\DOCUMENTS\VISUAL STUDIO 2015\PROJECTS\EDGE\EDGE\GLEW-2.0.0\INCLUDE" /I"C:\USERS\SHANE\DOCUMENTS\VISUAL STUDIO 2015\PROJECTS\EDGE\EDGE\GLEW-2.0.0\INCLUDE\GL" /I"E:\USERS\SKING14\FINAL\EDGE\EDGE\SDL2_IMAGE-2.0.1\INCLUDE" /I"E:\USERS\SKING14\FINAL\EDGE\EDGE\SDL2_MIXER-DEVEL-2.0.1-VC\SDL2_MIXER-2.0.1\INCLUDE" /I"E:\USERS\SKING14\FINAL\EDGE\EDGE\SDL2_TTF-DEVEL-2.0.14-VC\SDL2_TTF-2.0.14\INCLUDE" /I"E:\USERS\SKING14\FINAL\EDGE\EDGE\SDL2-2.0.5\INCLUDE" /I"C:\USERS\SHANE\DOCUMENTS\VISUAL STUDIO 2015\PROJECTS\EDGE\EDGE\SDL2_MIXER-DEVEL-2.0.1-VC\SDL2_MIXER-2.0.1\INCLUDE" /I"C:\USERS\SHANE\DOCUMENTS\VISUAL STUDIO 2015\PROJECTS\EDGE\EDGE\SDL2-2.0.5\INCLUDE" /I"C:\USERS\SHANE\DOCUMENTS\VISUAL STUDIO 2015\PROJECTS\EDGE\EDGE\SDL2_TTF-DEVEL-2.0.14-VC\SDL2_TTF-2.0.14\INCLUDE" /I"C:\USERS\SHANE\DOCUMENTS\VISUAL STUDIO 2015\PROJECTS\EDGE\EDGE\SDL2_IMAGE-2.0.1\INCLUDE" /I"C:\PROGRAM FILES (X86)\VISUAL LEAK DETECTOR\INCLUDE" /Zi /nologo /W3 /WX- /sdl /O2 /Oi /Oy- /GL /D WIN32 /D NDEBUG /D _CONSOLE /D _UNICODE /D UNICODE /Gm- /EHsc /MD /GS /Gy /fp:precise /Zc:wchar_t /Zc:forScope /Zc:inline /Fo"RELEASE\\" /Fd"RELEASE\VC140.PDB" /Gd /TP /analyze- C:\USERS\SHANE\DOCUMENTS\VISUAL STUDIO 2015\PROJECTS\EDGE\EDGE\TEXTUREDMESH.CPP
^C:\USERS\SHANE\DOCUMENTS\VISUAL STUDIO 2015\PROJECTS\EDGE\EDGE\TRANSFORM.CPP
/c /I"C:\USERS\SHANE\DOCUMENTS\VISUAL STUDIO 2015\PROJECTS\EDGE\EDGE\ASSIMP\INCLUDE" /I"C:\USERS\SHANE\DOCUMENTS\VISUAL STUDIO 2015\PROJECTS\EDGE\EDGE\SDL2-2.0.5\INCLUDE" /I"C:\USERS\SHANE\DOCUMENTS\VISUAL STUDIO 2015\PROJECTS\EDGE\EDGE\GLEW-2.0.0\INCLUDE" /I"C:\USERS\SHANE\DOCUMENTS\VISUAL STUDIO 2015\PROJECTS\EDGE\EDGE\GLM\TEST\EXTERNAL" /I"C:\USERS\SHANE\DOCUMENTS\VISUAL STUDIO 2015\PROJECTS\EDGE\EDGE\GLM" /I"C:\USERS\SHANE\DOCUMENTS\VISUAL STUDIO 2015\PROJECTS\EDGE\EDGE\GLM\GLM" /I"C:\USERS\SHANE\DOCUMENTS\VISUAL STUDIO 2015\PROJECTS\EDGE\EDGE\GLEW-2.0.0\INCLUDE" /I"C:\USERS\SHANE\DOCUMENTS\VISUAL STUDIO 2015\PROJECTS\EDGE\EDGE\GLEW-2.0.0\INCLUDE\GL" /I"E:\USERS\SKING14\FINAL\EDGE\EDGE\SDL2_IMAGE-2.0.1\INCLUDE" /I"E:\USERS\SKING14\FINAL\EDGE\EDGE\SDL2_MIXER-DEVEL-2.0.1-VC\SDL2_MIXER-2.0.1\INCLUDE" /I"E:\USERS\SKING14\FINAL\EDGE\EDGE\SDL2_TTF-DEVEL-2.0.14-VC\SDL2_TTF-2.0.14\INCLUDE" /I"E:\USERS\SKING14\FINAL\EDGE\EDGE\SDL2-2.0.5\INCLUDE" /I"C:\USERS\SHANE\DOCUMENTS\VISUAL STUDIO 2015\PROJECTS\EDGE\EDGE\SDL2_MIXER-DEVEL-2.0.1-VC\SDL2_MIXER-2.0.1\INCLUDE" /I"C:\USERS\SHANE\DOCUMENTS\VISUAL STUDIO 2015\PROJECTS\EDGE\EDGE\SDL2-2.0.5\INCLUDE" /I"C:\USERS\SHANE\DOCUMENTS\VISUAL STUDIO 2015\PROJECTS\EDGE\EDGE\SDL2_TTF-DEVEL-2.0.14-VC\SDL2_TTF-2.0.14\INCLUDE" /I"C:\USERS\SHANE\DOCUMENTS\VISUAL STUDIO 2015\PROJECTS\EDGE\EDGE\SDL2_IMAGE-2.0.1\INCLUDE" /I"C:\PROGRAM FILES (X86)\VISUAL LEAK DETECTOR\INCLUDE" /Zi /nologo /W3 /WX- /sdl /O2 /Oi /Oy- /GL /D WIN32 /D NDEBUG /D _CONSOLE /D _UNICODE /D UNICODE /Gm- /EHsc /MD /GS /Gy /fp:precise /Zc:wchar_t /Zc:forScope /Zc:inline /Fo"RELEASE\\" /Fd"RELEASE\VC140.PDB" /Gd /TP /analyze- C:\USERS\SHANE\DOCUMENTS\VISUAL STUDIO 2015\PROJECTS\EDGE\EDGE\TRANSFORM.CPP
^C:\USERS\SHANE\DOCUMENTS\VISUAL STUDIO 2015\PROJECTS\EDGE\EDGE\TRIGGER.CPP
/c /I"C:\USERS\SHANE\DOCUMENTS\VISUAL STUDIO 2015\PROJECTS\EDGE\EDGE\ASSIMP\INCLUDE" /I"C:\USERS\SHANE\DOCUMENTS\VISUAL STUDIO 2015\PROJECTS\EDGE\EDGE\SDL2-2.0.5\INCLUDE" /I"C:\USERS\SHANE\DOCUMENTS\VISUAL STUDIO 2015\PROJECTS\EDGE\EDGE\GLEW-2.0.0\INCLUDE" /I"C:\USERS\SHANE\DOCUMENTS\VISUAL STUDIO 2015\PROJECTS\EDGE\EDGE\GLM\TEST\EXTERNAL" /I"C:\USERS\SHANE\DOCUMENTS\VISUAL STUDIO 2015\PROJECTS\EDGE\EDGE\GLM" /I"C:\USERS\SHANE\DOCUMENTS\VISUAL STUDIO 2015\PROJECTS\EDGE\EDGE\GLM\GLM" /I"C:\USERS\SHANE\DOCUMENTS\VISUAL STUDIO 2015\PROJECTS\EDGE\EDGE\GLEW-2.0.0\INCLUDE" /I"C:\USERS\SHANE\DOCUMENTS\VISUAL STUDIO 2015\PROJECTS\EDGE\EDGE\GLEW-2.0.0\INCLUDE\GL" /I"E:\USERS\SKING14\FINAL\EDGE\EDGE\SDL2_IMAGE-2.0.1\INCLUDE" /I"E:\USERS\SKING14\FINAL\EDGE\EDGE\SDL2_MIXER-DEVEL-2.0.1-VC\SDL2_MIXER-2.0.1\INCLUDE" /I"E:\USERS\SKING14\FINAL\EDGE\EDGE\SDL2_TTF-DEVEL-2.0.14-VC\SDL2_TTF-2.0.14\INCLUDE" /I"E:\USERS\SKING14\FINAL\EDGE\EDGE\SDL2-2.0.5\INCLUDE" /I"C:\USERS\SHANE\DOCUMENTS\VISUAL STUDIO 2015\PROJECTS\EDGE\EDGE\SDL2_MIXER-DEVEL-2.0.1-VC\SDL2_MIXER-2.0.1\INCLUDE" /I"C:\USERS\SHANE\DOCUMENTS\VISUAL STUDIO 2015\PROJECTS\EDGE\EDGE\SDL2-2.0.5\INCLUDE" /I"C:\USERS\SHANE\DOCUMENTS\VISUAL STUDIO 2015\PROJECTS\EDGE\EDGE\SDL2_TTF-DEVEL-2.0.14-VC\SDL2_TTF-2.0.14\INCLUDE" /I"C:\USERS\SHANE\DOCUMENTS\VISUAL STUDIO 2015\PROJECTS\EDGE\EDGE\SDL2_IMAGE-2.0.1\INCLUDE" /I"C:\PROGRAM FILES (X86)\VISUAL LEAK DETECTOR\INCLUDE" /Zi /nologo /W3 /WX- /sdl /O2 /Oi /Oy- /GL /D WIN32 /D NDEBUG /D _CONSOLE /D _UNICODE /D UNICODE /Gm- /EHsc /MD /GS /Gy /fp:precise /Zc:wchar_t /Zc:forScope /Zc:inline /Fo"RELEASE\\" /Fd"RELEASE\VC140.PDB" /Gd /TP /analyze- C:\USERS\SHANE\DOCUMENTS\VISUAL STUDIO 2015\PROJECTS\EDGE\EDGE\TRIGGER.CPP
^C:\USERS\SHANE\DOCUMENTS\VISUAL STUDIO 2015\PROJECTS\EDGE\EDGE\VIEW.CPP
/c /I"C:\USERS\SHANE\DOCUMENTS\VISUAL STUDIO 2015\PROJECTS\EDGE\EDGE\ASSIMP\INCLUDE" /I"C:\USERS\SHANE\DOCUMENTS\VISUAL STUDIO 2015\PROJECTS\EDGE\EDGE\SDL2-2.0.5\INCLUDE" /I"C:\USERS\SHANE\DOCUMENTS\VISUAL STUDIO 2015\PROJECTS\EDGE\EDGE\GLEW-2.0.0\INCLUDE" /I"C:\USERS\SHANE\DOCUMENTS\VISUAL STUDIO 2015\PROJECTS\EDGE\EDGE\GLM\TEST\EXTERNAL" /I"C:\USERS\SHANE\DOCUMENTS\VISUAL STUDIO 2015\PROJECTS\EDGE\EDGE\GLM" /I"C:\USERS\SHANE\DOCUMENTS\VISUAL STUDIO 2015\PROJECTS\EDGE\EDGE\GLM\GLM" /I"C:\USERS\SHANE\DOCUMENTS\VISUAL STUDIO 2015\PROJECTS\EDGE\EDGE\GLEW-2.0.0\INCLUDE" /I"C:\USERS\SHANE\DOCUMENTS\VISUAL STUDIO 2015\PROJECTS\EDGE\EDGE\GLEW-2.0.0\INCLUDE\GL" /I"E:\USERS\SKING14\FINAL\EDGE\EDGE\SDL2_IMAGE-2.0.1\INCLUDE" /I"E:\USERS\SKING14\FINAL\EDGE\EDGE\SDL2_MIXER-DEVEL-2.0.1-VC\SDL2_MIXER-2.0.1\INCLUDE" /I"E:\USERS\SKING14\FINAL\EDGE\EDGE\SDL2_TTF-DEVEL-2.0.14-VC\SDL2_TTF-2.0.14\INCLUDE" /I"E:\USERS\SKING14\FINAL\EDGE\EDGE\SDL2-2.0.5\INCLUDE" /I"C:\USERS\SHANE\DOCUMENTS\VISUAL STUDIO 2015\PROJECTS\EDGE\EDGE\SDL2_MIXER-DEVEL-2.0.1-VC\SDL2_MIXER-2.0.1\INCLUDE" /I"C:\USERS\SHANE\DOCUMENTS\VISUAL STUDIO 2015\PROJECTS\EDGE\EDGE\SDL2-2.0.5\INCLUDE" /I"C:\USERS\SHANE\DOCUMENTS\VISUAL STUDIO 2015\PROJECTS\EDGE\EDGE\SDL2_TTF-DEVEL-2.0.14-VC\SDL2_TTF-2.0.14\INCLUDE" /I"C:\USERS\SHANE\DOCUMENTS\VISUAL STUDIO 2015\PROJECTS\EDGE\EDGE\SDL2_IMAGE-2.0.1\INCLUDE" /I"C:\PROGRAM FILES (X86)\VISUAL LEAK DETECTOR\INCLUDE" /Zi /nologo /W3 /WX- /sdl /O2 /Oi /Oy- /GL /D WIN32 /D NDEBUG /D _CONSOLE /D _UNICODE /D UNICODE /Gm- /EHsc /MD /GS /Gy /fp:precise /Zc:wchar_t /Zc:forScope /Zc:inline /Fo"RELEASE\\" /Fd"RELEASE\VC140.PDB" /Gd /TP /analyze- C:\USERS\SHANE\DOCUMENTS\VISUAL STUDIO 2015\PROJECTS\EDGE\EDGE\VIEW.CPP
^C:\USERS\SHANE\DOCUMENTS\VISUAL STUDIO 2015\PROJECTS\EDGE\EDGE\WALL.CPP
/c /I"C:\USERS\SHANE\DOCUMENTS\VISUAL STUDIO 2015\PROJECTS\EDGE\EDGE\ASSIMP\INCLUDE" /I"C:\USERS\SHANE\DOCUMENTS\VISUAL STUDIO 2015\PROJECTS\EDGE\EDGE\SDL2-2.0.5\INCLUDE" /I"C:\USERS\SHANE\DOCUMENTS\VISUAL STUDIO 2015\PROJECTS\EDGE\EDGE\GLEW-2.0.0\INCLUDE" /I"C:\USERS\SHANE\DOCUMENTS\VISUAL STUDIO 2015\PROJECTS\EDGE\EDGE\GLM\TEST\EXTERNAL" /I"C:\USERS\SHANE\DOCUMENTS\VISUAL STUDIO 2015\PROJECTS\EDGE\EDGE\GLM" /I"C:\USERS\SHANE\DOCUMENTS\VISUAL STUDIO 2015\PROJECTS\EDGE\EDGE\GLM\GLM" /I"C:\USERS\SHANE\DOCUMENTS\VISUAL STUDIO 2015\PROJECTS\EDGE\EDGE\GLEW-2.0.0\INCLUDE" /I"C:\USERS\SHANE\DOCUMENTS\VISUAL STUDIO 2015\PROJECTS\EDGE\EDGE\GLEW-2.0.0\INCLUDE\GL" /I"E:\USERS\SKING14\FINAL\EDGE\EDGE\SDL2_IMAGE-2.0.1\INCLUDE" /I"E:\USERS\SKING14\FINAL\EDGE\EDGE\SDL2_MIXER-DEVEL-2.0.1-VC\SDL2_MIXER-2.0.1\INCLUDE" /I"E:\USERS\SKING14\FINAL\EDGE\EDGE\SDL2_TTF-DEVEL-2.0.14-VC\SDL2_TTF-2.0.14\INCLUDE" /I"E:\USERS\SKING14\FINAL\EDGE\EDGE\SDL2-2.0.5\INCLUDE" /I"C:\USERS\SHANE\DOCUMENTS\VISUAL STUDIO 2015\PROJECTS\EDGE\EDGE\SDL2_MIXER-DEVEL-2.0.1-VC\SDL2_MIXER-2.0.1\INCLUDE" /I"C:\USERS\SHANE\DOCUMENTS\VISUAL STUDIO 2015\PROJECTS\EDGE\EDGE\SDL2-2.0.5\INCLUDE" /I"C:\USERS\SHANE\DOCUMENTS\VISUAL STUDIO 2015\PROJECTS\EDGE\EDGE\SDL2_TTF-DEVEL-2.0.14-VC\SDL2_TTF-2.0.14\INCLUDE" /I"C:\USERS\SHANE\DOCUMENTS\VISUAL STUDIO 2015\PROJECTS\EDGE\EDGE\SDL2_IMAGE-2.0.1\INCLUDE" /I"C:\PROGRAM FILES (X86)\VISUAL LEAK DETECTOR\INCLUDE" /Zi /nologo /W3 /WX- /sdl /O2 /Oi /Oy- /GL /D WIN32 /D NDEBUG /D _CONSOLE /D _UNICODE /D UNICODE /Gm- /EHsc /MD /GS /Gy /fp:precise /Zc:wchar_t /Zc:forScope /Zc:inline /Fo"RELEASE\\" /Fd"RELEASE\VC140.PDB" /Gd /TP /analyze- C:\USERS\SHANE\DOCUMENTS\VISUAL STUDIO 2015\PROJECTS\EDGE\EDGE\WALL.CPP
^C:\USERS\SHANE\DOCUMENTS\VISUAL STUDIO 2015\PROJECTS\EDGE\EDGE\WEIGHTROOMCONTROLLER.CPP
/c /I"C:\USERS\SHANE\DOCUMENTS\VISUAL STUDIO 2015\PROJECTS\EDGE\EDGE\ASSIMP\INCLUDE" /I"C:\USERS\SHANE\DOCUMENTS\VISUAL STUDIO 2015\PROJECTS\EDGE\EDGE\SDL2-2.0.5\INCLUDE" /I"C:\USERS\SHANE\DOCUMENTS\VISUAL STUDIO 2015\PROJECTS\EDGE\EDGE\GLEW-2.0.0\INCLUDE" /I"C:\USERS\SHANE\DOCUMENTS\VISUAL STUDIO 2015\PROJECTS\EDGE\EDGE\GLM\TEST\EXTERNAL" /I"C:\USERS\SHANE\DOCUMENTS\VISUAL STUDIO 2015\PROJECTS\EDGE\EDGE\GLM" /I"C:\USERS\SHANE\DOCUMENTS\VISUAL STUDIO 2015\PROJECTS\EDGE\EDGE\GLM\GLM" /I"C:\USERS\SHANE\DOCUMENTS\VISUAL STUDIO 2015\PROJECTS\EDGE\EDGE\GLEW-2.0.0\INCLUDE" /I"C:\USERS\SHANE\DOCUMENTS\VISUAL STUDIO 2015\PROJECTS\EDGE\EDGE\GLEW-2.0.0\INCLUDE\GL" /I"E:\USERS\SKING14\FINAL\EDGE\EDGE\SDL2_IMAGE-2.0.1\INCLUDE" /I"E:\USERS\SKING14\FINAL\EDGE\EDGE\SDL2_MIXER-DEVEL-2.0.1-VC\SDL2_MIXER-2.0.1\INCLUDE" /I"E:\USERS\SKING14\FINAL\EDGE\EDGE\SDL2_TTF-DEVEL-2.0.14-VC\SDL2_TTF-2.0.14\INCLUDE" /I"E:\USERS\SKING14\FINAL\EDGE\EDGE\SDL2-2.0.5\INCLUDE" /I"C:\USERS\SHANE\DOCUMENTS\VISUAL STUDIO 2015\PROJECTS\EDGE\EDGE\SDL2_MIXER-DEVEL-2.0.1-VC\SDL2_MIXER-2.0.1\INCLUDE" /I"C:\USERS\SHANE\DOCUMENTS\VISUAL STUDIO 2015\PROJECTS\EDGE\EDGE\SDL2-2.0.5\INCLUDE" /I"C:\USERS\SHANE\DOCUMENTS\VISUAL STUDIO 2015\PROJECTS\EDGE\EDGE\SDL2_TTF-DEVEL-2.0.14-VC\SDL2_TTF-2.0.14\INCLUDE" /I"C:\USERS\SHANE\DOCUMENTS\VISUAL STUDIO 2015\PROJECTS\EDGE\EDGE\SDL2_IMAGE-2.0.1\INCLUDE" /I"C:\PROGRAM FILES (X86)\VISUAL LEAK DETECTOR\INCLUDE" /Zi /nologo /W3 /WX- /sdl /O2 /Oi /Oy- /GL /D WIN32 /D NDEBUG /D _CONSOLE /D _UNICODE /D UNICODE /Gm- /EHsc /MD /GS /Gy /fp:precise /Zc:wchar_t /Zc:forScope /Zc:inline /Fo"RELEASE\\" /Fd"RELEASE\VC140.PDB" /Gd /TP /analyze- C:\USERS\SHANE\DOCUMENTS\VISUAL STUDIO 2015\PROJECTS\EDGE\EDGE\WEIGHTROOMCONTROLLER.CPP
^C:\USERS\SHANE\DOCUMENTS\VISUAL STUDIO 2015\PROJECTS\EDGE\EDGE\MAIN.CPP
/c /I"C:\USERS\SHANE\DOCUMENTS\VISUAL STUDIO 2015\PROJECTS\EDGE\EDGE\ASSIMP\INCLUDE" /I"C:\USERS\SHANE\DOCUMENTS\VISUAL STUDIO 2015\PROJECTS\EDGE\EDGE\SDL2-2.0.5\INCLUDE" /I"C:\USERS\SHANE\DOCUMENTS\VISUAL STUDIO 2015\PROJECTS\EDGE\EDGE\GLEW-2.0.0\INCLUDE" /I"C:\USERS\SHANE\DOCUMENTS\VISUAL STUDIO 2015\PROJECTS\EDGE\EDGE\GLM\TEST\EXTERNAL" /I"C:\USERS\SHANE\DOCUMENTS\VISUAL STUDIO 2015\PROJECTS\EDGE\EDGE\GLM" /I"C:\USERS\SHANE\DOCUMENTS\VISUAL STUDIO 2015\PROJECTS\EDGE\EDGE\GLM\GLM" /I"C:\USERS\SHANE\DOCUMENTS\VISUAL STUDIO 2015\PROJECTS\EDGE\EDGE\GLEW-2.0.0\INCLUDE" /I"C:\USERS\SHANE\DOCUMENTS\VISUAL STUDIO 2015\PROJECTS\EDGE\EDGE\GLEW-2.0.0\INCLUDE\GL" /I"E:\USERS\SKING14\FINAL\EDGE\EDGE\SDL2_IMAGE-2.0.1\INCLUDE" /I"E:\USERS\SKING14\FINAL\EDGE\EDGE\SDL2_MIXER-DEVEL-2.0.1-VC\SDL2_MIXER-2.0.1\INCLUDE" /I"E:\USERS\SKING14\FINAL\EDGE\EDGE\SDL2_TTF-DEVEL-2.0.14-VC\SDL2_TTF-2.0.14\INCLUDE" /I"E:\USERS\SKING14\FINAL\EDGE\EDGE\SDL2-2.0.5\INCLUDE" /I"C:\USERS\SHANE\DOCUMENTS\VISUAL STUDIO 2015\PROJECTS\EDGE\EDGE\SDL2_MIXER-DEVEL-2.0.1-VC\SDL2_MIXER-2.0.1\INCLUDE" /I"C:\USERS\SHANE\DOCUMENTS\VISUAL STUDIO 2015\PROJECTS\EDGE\EDGE\SDL2-2.0.5\INCLUDE" /I"C:\USERS\SHANE\DOCUMENTS\VISUAL STUDIO 2015\PROJECTS\EDGE\EDGE\SDL2_TTF-DEVEL-2.0.14-VC\SDL2_TTF-2.0.14\INCLUDE" /I"C:\USERS\SHANE\DOCUMENTS\VISUAL STUDIO 2015\PROJECTS\EDGE\EDGE\SDL2_IMAGE-2.0.1\INCLUDE" /I"C:\PROGRAM FILES (X86)\VISUAL LEAK DETECTOR\INCLUDE" /Zi /nologo /W3 /WX- /sdl /O2 /Oi /Oy- /GL /D WIN32 /D NDEBUG /D _CONSOLE /D _UNICODE /D UNICODE /Gm- /EHsc /MD /GS /Gy /fp:precise /Zc:wchar_t /Zc:forScope /Zc:inline /Fo"RELEASE\\" /Fd"RELEASE\VC140.PDB" /Gd /TP /analyze- C:\USERS\SHANE\DOCUMENTS\VISUAL STUDIO 2015\PROJECTS\EDGE\EDGE\MAIN.CPP
